<?xml version="1.0" encoding="utf-8"?>
<!-- Generator: Adobe Illustrator 18.1.0, SVG Export Plug-In . SVG Version: 6.00 Build 0)  -->
<svg version="1.1" id="Layer_1" xmlns="http://www.w3.org/2000/svg" xmlns:xlink="http://www.w3.org/1999/xlink" x="0px" y="0px"
	 viewBox="10.9 276.9 591.7 237" enable-background="new 10.9 276.9 591.7 237" xml:space="preserve">
<g>
	<path fill="#2B7D3E" d="M106.3,276.9c4.1,0,8.3,0,12.5,0c43.9,4.6,72.3,27.1,87.2,60.7c7.7,17.2,10.6,40.4,5.1,62.7
		c-4.8,19.4-14.8,34.3-27.3,46.6c-12.5,12.3-28.3,21.5-47.9,26c-20.9,4.8-44.4,2.3-62.7-5.1c-33.8-13.8-57.5-42.4-62.3-85.4
		c0-4,0-8.2,0-12.2c1.1-13,4.8-26.8,10-37.2C36.4,301.6,65.1,281.4,106.3,276.9z M84.6,283.8c-19.2,5.6-33.9,15.7-45.2,28
		c-15,16.6-27.7,39.1-25.2,71.6c2.2,28.8,15.3,49.7,32.6,64.8c16.4,14.2,41.5,26.4,72.7,24.2c29-2,51.2-15.1,66.1-31.3
		s27.7-40.4,25.3-71.6c-2.3-29.8-16-50.3-32.6-64.8c-16.6-14.4-40.6-26.7-72.5-24.5C98.7,280.7,91.2,281.9,84.6,283.8z"/>
	<path fill="#2B7D3E" d="M109.9,284.9c1.1,0,2,0,3.1,0c0.8,3.9,1.9,7.6,2.8,11.5c-0.7,0-1.5,0-2.3,0c-0.1-1-0.6-1.6-0.5-2.8
		c-0.8,0-1.7,0-2.5,0c-0.5,0.6-0.4,1.9-0.7,2.8c-0.7,0-1.5,0-2.3,0C108.3,292.6,109.1,288.8,109.9,284.9z M110.6,291.7
		c0.6,0,1.2,0,1.8,0c-0.4-1.4-0.5-3.3-1.1-4.6C111,288.6,110.6,290,110.6,291.7z"/>
	<path fill="#2B7D3E" d="M122.8,285.6c0,0.2,0,0.5,0,0.7c0.1,1.1-1.6,0.3-2.3,0.5c-1,2.7-0.5,6.6-1.1,9.7c-0.6,0-1.4,0-2,0
		c-0.1-3.5,0.5-6.3,0.5-9.7c-0.3-0.6-2.1,0.1-2.6-0.5C115.6,283.5,121,285.5,122.8,285.6z"/>
	<path fill="#2B7D3E" d="M105.8,285.1c0.2,3.9,0.6,7.5,0.7,11.5c-0.7,0-1.5,0-2.3,0c-0.1-3.9-0.3-7.6-0.7-11.3
		C103.9,284.9,105,285.1,105.8,285.1z"/>
	<path fill="#2B7D3E" d="M101.5,288.9c-2.1,1.3-2.2-1.3-3.6-1.5c-2.1,1.2-1.2,8.3,1.8,8.4c1-0.2,0.3-1.8,0.5-2.8
		c1,0.2,1.2-0.3,2-0.2c0.5,1.5,0.2,3.1-0.5,4c-6.1,3.4-7.9-4.5-6.9-9.7C96.7,285,101.6,285.1,101.5,288.9z"/>
	<path fill="#2B7D3E" d="M124.1,285.6c0.7,0,1.5,0,2.3,0c-0.6,3.7-0.9,7.8-1.5,11.5c-1,0.2-1.2-0.3-2-0.2
		C123.1,292.9,124,289.5,124.1,285.6z"/>
	<path fill="#2B7D3E" d="M132.8,298.6c-2.6,0.2-4.3-0.3-5.3-1.5c-1.3-5.1,2.6-13.8,7.4-9.7C137.6,289.8,134.7,296.9,132.8,298.6z
		 M129.7,296.5c0.6,0.1,1,0.4,1.8,0.2c1.6-1.6,2.3-5.3,1.8-8.2C129.6,287.7,129.6,293.7,129.7,296.5z"/>
	<path fill="#FFFFFF" d="M111.4,287.1c0.5,1.4,0.5,3.2,1.1,4.6c-0.6,0-1.2,0-1.8,0C110.6,290,111,288.6,111.4,287.1z"/>
	<path fill="#2B7D3E" d="M91.3,288.2c1.5,2.4,2.6,5.4,2.6,9.5c-1,1.6-2.9,2.2-5.6,2c-2-2.3-3.1-5.6-3.1-10
		C85.9,287.8,89,287,91.3,288.2z M88.7,289.4c-3.2,0.1-0.2,10.5,2.6,8.2C92.1,295.5,90.6,289.3,88.7,289.4z"/>
	<path fill="#FFFFFF" d="M133.3,288.7c0.5,2.9-0.2,6.5-1.8,8.2c-0.9,0.1-1.2-0.2-1.8-0.2C129.6,293.7,129.6,287.7,133.3,288.7z"/>
	<path fill="#2B7D3E" d="M139.2,288.7c0.7,0.1,1.3,0.4,2,0.5c0.3,2.7,0.5,5.6,0.5,8.7c1-2.4,1.6-5.1,2.3-7.6c0.8,0,1.2,0.5,2,0.5
		c-0.7,4-2.4,7.1-3.3,10.9c-1.1,0.1-1.3-0.6-2.3-0.5c-0.2-2.9-0.6-5.5-0.5-8.7c-0.9,2.4-1.5,5.1-2.3,7.6c-0.9,0-1.2-0.5-2-0.5
		C136.6,295.8,137.9,292.3,139.2,288.7z"/>
	<path fill="#FFFFFF" d="M91.3,297.6c-2.8,2.3-5.7-8.1-2.6-8.2C90.6,289.3,92.1,295.5,91.3,297.6z"/>
	<path fill="#2B7D3E" d="M82.9,293.5c-2.1,1.1-1.9-0.5-3.6-1.1c-0.3,0.2-1,0.2-1.1,0.7c0.6,3.5,3.9,1.2,6.2,3.3
		c4.5,4.5-5.5,8.9-6.4,3.1c0.1-0.9,1.5-0.4,1.8-1.1c0.3,1.3,2.1,3.1,3.3,1.3c-0.7-4.3-7.3-1.4-7.1-6.2
		C76.1,290.6,82.1,289,82.9,293.5z"/>
	<path fill="#2B7D3E" d="M74.4,296.8c-0.6,0.1-1.2,0.3-1.5,0.7c-0.6-0.4-0.8-1.4-1.8-1.5c-0.5,0.2-1.1,0.4-1.3,1.1
		c1.1,3,5.6,1.1,7.1,3.3c3.1,4.7-5.8,8.3-6.6,2.5c0.6-0.1,1.2-0.3,1.5-0.7c0.6,1,2.3,2.9,3.6,1.1c-0.9-4.3-8.8-0.5-7.7-6.4
		C68.2,294.5,73.6,292.6,74.4,296.8z"/>
	<path fill="#2B7D3E" d="M153.4,294.7c1.9-0.6,4.7,0,5.1,2.5c0.5,3.1-3.3,8.9-5.3,9.1c-1.9,0.2-4.3-1.4-4.6-2.6
		C147.8,301.1,151.6,295.4,153.4,294.7z M151.2,304.2c3.5,0.4,4.4-3.9,5.1-7.1C152.8,295.5,150.6,301.6,151.2,304.2z"/>
	<path fill="#FFFFFF" d="M156.3,297.1c-0.7,3.3-1.6,7.5-5.1,7.1C150.6,301.6,152.8,295.5,156.3,297.1z"/>
	<path fill="#2B7D3E" d="M161.6,298.6c2.1,0.7,3.5,2,5.3,3.1c-0.1,0.5-0.5,0.6-0.5,1.3c-1.5-0.2-2.3-1.1-3.3-1.8
		c-1.1,0.2-1.3,1.3-1.8,2c0.3,1.4,2.2,1.2,2.8,2.3c0.2,0.7-0.7,0.5-0.5,1.3c-1.4-0.3-2.1-1.3-3.3-1.8c-1.1,1.3-2,2.8-2.8,4.4
		c-0.7-0.2-1.1-0.7-1.8-1.1C157.4,304.7,159.8,302,161.6,298.6z"/>
	<path fill="#2B7D3E" d="M71.6,307c-0.1,0.7-1.4,0.5-1.5,1.3c-1.3-0.3-1.5-1.6-2.6-2c-0.6,0.4-1.4,0.8-2,1.3c0.3,1,0.7,1.8,1.1,2.8
		c-0.8,0.2-1.1,1-2,1.1c-1.1-3.7-2.4-7.1-3.6-10.7c0.1-1.2,1.5-1.1,2-1.8C66.2,301.1,68.5,304.5,71.6,307z M64.7,305.7
		c0.7,0,1-0.5,1.5-0.7c-0.7-1.6-2.3-2.4-3.3-3.8C63.4,302.7,64.3,304.1,64.7,305.7z"/>
	<path fill="#2B7D3E" d="M110.6,300.4c23.3-1.1,43.9,9.2,55.9,21.1c12.1,12.2,23.7,29,23.7,53c0,25.2-9,41.6-22.2,54.8
		c-12.6,12.6-30.8,22.4-53.3,23c-24.9,0.6-42.5-8.7-55.9-21.1c-12.6-11.8-23.9-29.9-23.9-52.8c0-25.9,9.3-42.5,21.9-55
		C69.6,310.6,85.7,301.5,110.6,300.4z M110.1,312.6c-1.5,2.9-2,7.4-3.3,10.9c-2.9-0.1-4-1.7-6.6-2c-1.1,1.2-2.6,2-3.8,3.1
		c-2.5,5,1.4,13.8-2.5,17.1c-5.8-1.4-8.6-5.8-14.6-7.1c0,3.9-0.8,6.7-0.5,9.7c0.2,1.8,1.4,3.3,1.8,5.1c0.4,1.7,0.1,3.2,0.7,4.6
		c1.1,2.2,3.9,3.6,3.1,7.4c3.2,1.8,5.5,4.3,6.9,7.9c-0.7,1.9-2,3.3-3.6,4.4c-1.7-1.8-4-1.5-6.4-2.8c-2.7-1.5-4.9-5.2-8.2-4.6
		c-1.7,0.3-2.2,3.2-4,3.8c-3.9,1.4-6.8-3.8-11.7-1.8c-4.3-1.9-8-5.7-14.2-4.9c-0.6,4.6,3.1,5.9,4.4,8.9c0.6,1.6,0.4,3.4,1.1,4.9
		c0.7,2,2.2,3.3,2.5,5.3c-2.9,3.1,1.8,4.8,1.8,8.2c1,1.9,3.5,2.3,4.6,4c-0.5,2.1-2.5,2.8-3.3,4.6c1.5,1.5,1.8,2.9,2.8,4.6
		c1.1,0.3,2.4,0.3,3.8,0.2c1.5,2.2,4.8,1.5,7.6,2.3c1.5,0.4,2.7,1.3,4,1.5c5,1.1,10.6,0.1,13.8,3.1c-0.2,1.4-1.4,1.9-2.3,2.6
		c0.7,1.4-1.1,3.9-2.6,4c-1.4,0.1-2.6-2-4-1.8c-0.9,0.1-2.6,2.7-3.6,3.3c-0.3,0.2-1-0.1-1.3,0c-1.9,1-5.6,5.5-5.8,6.9
		c-0.1,1.1,0.6,2.8,0.7,3.6c6,0.5,5.7,8,12.2,6.9c1.6-0.2,3-1.8,5.1-1.8c1.4,0,2.7,0.3,4.4,1.1c0.3,0.7,0.2,1.9,0.2,3.1
		c1.1-0.3,2.3,1.4,4,1.3c2-0.1,3.9-3.6,6.6-4c1.5-0.3,2.1,0.5,4,0.7c3.8,0.4,6.9-0.6,6.6,2.8c-0.1,2.1-4.6,3.6-2,7.4
		c1.6,1.4,5.2,0.5,7.4,0.2c-0.1-2.7-2-3.5-3.1-5.1c1-4.4,3.5-3.7,8.4-4c3.4-0.2,7.2-1.1,9.7-0.7c1.3,0.1,2.6,1,3.8,0.7
		c1.2-0.2,1.7-1.3,2.8-1.8c3.4-1.5,7.2-0.5,10.9-1.3c1.2-1.1,0.6-3.7,2.3-4.4c3.4,1.3,8-1.6,5.3-5.3c-4.1-3.1-10.9-10.1-5.6-15.8
		c4.3,0.9,5.4-1.4,7.4-2.8c5.3,1.3,10-1.9,12.2-5.3c-3.1-0.2-4.5-2.1-6.6-3.3c2.1-3.1,7.8-2.8,7.1-8.7c-0.4-0.5-1.8-0.2-1.5-1.5
		c0.9-3.3,5.6-3.8,4.4-8.4c2.9-2.7,4.4-6.7,5.3-11.3c-1.6,0.1-2.7-1.3-4.6-1.1s-3.2,3-5.1,3.6c-2,0.6-4.5,0-6.4,0.5
		c-2.2,0.6-3.3,2.4-5.3,2.3c-0.6-7.5-5.6-2-9.5-2.5c-2.2,0.7-3.2,5.4-6.9,4.6c-1-0.2-2.9-1.9-2.8-3.6c0.1-1.2,1.3-1.6,1.8-2.5
		c1.3-2.3,2.1-5.6,4.4-6.9c0.1-3.9,2.5-5.5,4.9-7.4c0.4-1.8-0.1-3.6,0.5-5.6c0.3-1.2,1.4-1.9,1.5-3.1c0.1-0.9-0.4-1.8-0.5-2.8
		c-0.2-2,0.4-4.8-1.5-5.6c-2.2,0-2.2,1.5-4.6,0.7c-1.8,1.2-2.2,3.5-4.6,3.8c-1.3,0.1-2.3-0.7-3.6-0.5c-1.9,0.3-2.4,2.4-4.6,2
		c-1.3-0.5-1-2.5-1.1-4.4c2.9-2.1,1.6-7.3,2-11.5c-1.1-1.5-3.6-3.3-5.3-1.8c-2.4-1.5-2.4-4.6-3.8-6.9c-0.6-1.2-2.3-1.9-3.1-3.3
		c-2.1-3.9-2-9.3-5.3-11.5C114.2,308.1,111.6,309.7,110.1,312.6z"/>
	<path fill="#FFFFFF" d="M62.9,301.1c1,1.4,2.6,2.2,3.3,3.8c-0.5,0.2-0.7,0.7-1.5,0.7C64.3,304.1,63.4,302.7,62.9,301.1z"/>
	<path fill="#FFFFFF" d="M115.5,304.9c3.4,2.1,3.2,7.5,5.3,11.5c0.7,1.4,2.3,2.1,3.1,3.3c1.4,2.3,1.4,5.4,3.8,6.9
		c1.7-1.5,4.4,0.3,5.3,1.8c-0.4,4.1,0.7,9.4-2,11.5c0,1.8-0.3,3.8,1.1,4.4c2.1,0.3,2.8-1.7,4.6-2c1.3-0.2,2.3,0.6,3.6,0.5
		c2.3-0.3,2.8-2.7,4.6-3.8c2.3,0.6,2.4-0.7,4.6-0.7c1.9,0.9,1.4,3.6,1.5,5.6c0.1,1,0.6,1.9,0.5,2.8c-0.1,1.2-1.2,1.9-1.5,3.1
		c-0.6,2-0.1,3.8-0.5,5.6c-2.2,1.8-4.7,3.4-4.9,7.4c-2.2,1.3-3.1,4.6-4.4,6.9c-0.5,1-1.7,1.4-1.8,2.5c-0.1,1.6,1.8,3.4,2.8,3.6
		c3.7,0.9,4.7-3.8,6.9-4.6c3.8,0.5,8.8-5,9.5,2.5c2,0.1,3.1-1.7,5.3-2.3c1.9-0.5,4.4,0.1,6.4-0.5c1.9-0.6,3.2-3.4,5.1-3.6
		s3,1.1,4.6,1.1c-1,4.6-2.4,8.6-5.3,11.3c1.3,4.6-3.5,5.2-4.4,8.4c-0.3,1.3,1.1,1,1.5,1.5c0.6,5.8-5,5.5-7.1,8.7
		c2.1,1.2,3.5,3.1,6.6,3.3c-2.2,3.4-7,6.6-12.2,5.3c-2,1.4-3.2,3.6-7.4,2.8c-5.3,5.7,1.5,12.8,5.6,15.8c2.6,3.8-2,6.7-5.3,5.3
		c-1.6,0.5-1.2,3.2-2.3,4.4c-3.7,0.7-7.5-0.2-10.9,1.3c-1.1,0.4-1.7,1.6-2.8,1.8c-1.3,0.2-2.6-0.6-3.8-0.7c-2.4-0.3-6.3,0.5-9.7,0.7
		c-4.9,0.3-7.4-0.3-8.4,4c1.1,1.6,3,2.4,3.1,5.1c-2.2,0.3-5.7,1.1-7.4-0.2c-2.6-3.8,1.9-5.3,2-7.4c0.2-3.4-2.9-2.3-6.6-2.8
		c-1.9-0.2-2.6-1.1-4-0.7c-2.7,0.4-4.6,3.9-6.6,4c-1.7,0.1-3-1.6-4-1.3c0-1.1,0.1-2.3-0.2-3.1c-1.6-0.6-3-1.1-4.4-1.1
		c-2.1,0-3.5,1.5-5.1,1.8c-6.5,1.1-6.3-6.3-12.2-6.9c-0.1-0.9-1-2.5-0.7-3.6c0.2-1.4,3.9-6,5.8-6.9c0.3-0.1,1,0.2,1.3,0
		c1-0.6,2.7-3.2,3.6-3.3c1.5-0.2,2.8,1.9,4,1.8c1.5-0.1,3.3-2.8,2.6-4c1-0.6,2.1-1.2,2.3-2.5c-3.2-3-8.8-2-13.8-3.1
		c-1.4-0.3-2.6-1.2-4-1.5c-2.9-0.7-6.2-0.1-7.7-2.3c-1.4,0-2.8,0-3.8-0.2c-1-1.7-1.3-3.1-2.8-4.6c0.7-1.8,2.9-2.4,3.3-4.6
		c-1.2-1.8-3.6-2.1-4.6-4c0.1-3.4-4.7-5.1-1.8-8.2c-0.3-2.1-1.8-3.3-2.6-5.3c-0.5-1.5-0.4-3.3-1.1-4.9c-1.2-3-5-4.4-4.4-8.9
		c6.2-1.1,10,2.8,14.2,4.7c4.9-2,7.8,3.2,11.7,1.8c1.8-0.6,2.3-3.5,4-3.8c3.3-0.6,5.5,3.1,8.2,4.6c2.3,1.3,4.7,1.1,6.4,2.8
		c1.6-1.1,2.8-2.4,3.6-4.4c-1.3-3.6-3.7-6.2-6.9-7.9c0.8-3.7-2-5.2-3.1-7.4c-0.6-1.4-0.3-2.9-0.7-4.6c-0.4-1.8-1.6-3.3-1.8-5.1
		c-0.3-3,0.5-5.7,0.5-9.7c5.9,1.3,8.6,5.8,14.6,7.1c3.9-3.2,0-12.1,2.5-17.1c1.3-1.1,2.8-1.8,3.8-3.1c2.5,0.3,3.8,2,6.6,2
		c1.3-3.5,1.8-8.1,3.3-10.9C111.6,309.7,114.2,308.1,115.5,304.9z M104.6,352.4c0.2,1,1.2,1.2,1.5,2c-2.2,4.3,3.3,11.9-1.3,13.3
		c-1.5,0.4-7.4-1.1-7.9-1.8c-0.4,0.9-1.4,1.2-2.3,1.5c-0.9,2.6-0.4,6.6,0.2,9.1c1.2,0.3,1.1-0.7,2.3-0.5c0.3,1.3,0.2,2.9,0.7,3.8
		c1.3,0.8,3.2,1.1,4.9,1.5c-0.4-2.8,0.7-5.7,3.1-4c0.2,1.6-0.4,2.4-0.2,4c4.9,3.2,16.3-0.4,21.1,2c1.9-1.7,0.1-6.2-0.2-8.7
		c-1.1-0.1-2.4,0.2-3.1-0.2c0-0.9,0.2-1.9-0.2-2.3c-3.2,0.1-4.5,3.5-7.6,2.8c-0.5-3.7,5.6-2.9,6.6-5.8c-3.9-2-9.4-4.8-10.4-9.5
		c-0.2-1.2,0.2-2.4,0-3.6c-0.1-0.6-0.7-1.3-1.1-2c-1.6-4.7-3-8.6-5.3-12C104.9,345.9,106.3,349.4,104.6,352.4z M123.7,406.9
		c1.3,2.3-1.6,3.4-0.7,5.3c4.7,0.6,10,0.5,13.5,0c0.2,1.3-0.3,1.7-0.5,2.5c2.2-0.4,2.3-2.9,4.6-3.3c1.3,0.4,1,2.4,1.5,3.6
		c0.2-0.7,0.4-0.3,1.1-0.2c0,0.7,0.2,1.3,0.7,1.5c0.4-1,0.9-1.8,1.1-3.1c-0.6-0.1-0.5,0.4-1.3,0.2c-0.2-0.6-0.2-1.5-0.7-1.8
		c-0.3,0.6-0.5,0.9-1.3,0.5c-0.5-1.1-0.1-2.7,0-3.8c-0.5-1-1.5-1.5-1.8-2.5c0.4-0.7,1.2-1,1.1-2.3c-3.1-0.9-7.9,1-8.7-3.1
		c-1.2-0.1-1.3,0.7-2.3,0.7c-1.1-3.6,1.1-6.2,1.8-8.9C126.8,395.4,127.5,403.6,123.7,406.9z"/>
	<path fill="#2B7D3E" d="M169.6,312.4c-1.6,0.7-1.9,2.8-3.6,3.3c-0.4-0.3-0.9-0.7-1.3-1.1c2.2-3.3,5-6,7.4-8.9
		c0.9,1.4,3.9,2,4.4,3.8C177.4,313.5,171.5,315.8,169.6,312.4z M174.4,310c-0.2-2.3-3.5-1.2-3.8,1.1
		C172,312.9,174.6,311.6,174.4,310z"/>
	<path fill="#2B7D3E" d="M56.1,310.8c2.8-0.7,3.2,2.7,5.3,3.3c-0.6,0.5-1.2,1.3-2,1.5c-1-1.2-1.9-2.1-3.1-3.1
		c-1.3-0.1-1.5,0.9-2.3,1.3c0.7,1.6,2.3,2.4,3.1,4c-0.8,0.1-0.8,1-1.8,1.1c-2.4-2.8-4.7-5.8-7.4-8.4
		C49.2,307.5,57.1,304.3,56.1,310.8z M50.7,310.4c0.6,0.7,1.5,1.3,1.8,2.3C56.7,311.6,52.6,306.5,50.7,310.4z"/>
	<path fill="#FFFFFF" d="M170.5,311.1c0.3-2.2,3.6-3.4,3.8-1.1C174.6,311.6,172,312.9,170.5,311.1z"/>
	<path fill="#FFFFFF" d="M52.5,312.6c-0.3-1.1-1.2-1.5-1.8-2.3C52.6,306.5,56.7,311.6,52.5,312.6z"/>
	<path fill="#2B7D3E" d="M181,314.2c-2.5,2-5.2,3.8-7.1,6.4c1.9,4.6,6.9-3.3,9.1-4.4c0.7,0.2,0.9,1.2,1.5,1.5
		c-2.7,1-5.2,6.5-8.7,6.6c-2.1,0.1-4.1-1.9-4-4c0.1-3.9,6-4.8,7.6-7.9C180.2,312.7,180.7,313.3,181,314.2z"/>
	<path fill="#2B7D3E" d="M44.3,314.2c2.8-0.7,8.8,3.4,8.9,6.4c0.1,1.6-1.9,4.1-3.6,4.4C46.6,325.1,37.2,316.2,44.3,314.2z
		 M45.1,315.9c-4.4,0.7,5.5,10,6.2,5.1C49.8,319.7,47.4,315.6,45.1,315.9z"/>
	<path fill="#FFFFFF" d="M51.2,321c-0.5,4.9-10.5-4.4-6.2-5.1C47.4,315.6,49.8,319.7,51.2,321z"/>
	<path fill="#2B7D3E" d="M185.1,326.9c-0.4,6.2-7.8,3.4-8.2-0.7c3.2-1.9,6.2-4,8.9-6.4C189.2,320.8,190.7,328.2,185.1,326.9z
		 M183.8,324.4c0.4,3.3,5.6-1.6,2-1.5C185.1,322.8,183.7,323.5,183.8,324.4z M179.5,327.4c0.6,0.3,1,1.1,1.8,1.3
		c1.7-0.2,2.9-2.5,1.1-3.6C181.5,326,180.2,326.4,179.5,327.4z"/>
	<path fill="#2B7D3E" d="M44.1,332.8c-3.2-2.1-6.3-4.5-9.5-6.6c1.6-1.6,1.4-3.4,3.1-4.4c3.2-1.8,9.3,3.3,9.5,5.8
		C47.2,329.9,45.1,330.8,44.1,332.8z M37.4,325.3c2.2,1.6,4.1,3.3,6.6,4.6C47.3,327,38.9,321.2,37.4,325.3z"/>
	<path fill="#FFFFFF" d="M185.8,322.8c3.6-0.1-1.7,4.9-2,1.5C183.7,323.5,185.1,322.8,185.8,322.8z"/>
	<path fill="#FFFFFF" d="M44.1,329.9c-2.4-1.3-4.5-3.1-6.6-4.6C38.9,321.2,47.3,327,44.1,329.9z"/>
	<path fill="#FFFFFF" d="M182.3,325.1c1.8,1,0.7,3.4-1.1,3.6c-0.9-0.2-1.1-1-1.8-1.3C180.2,326.4,181.5,326,182.3,325.1z"/>
	<path fill="#2B7D3E" d="M193,329c-2.7,1.9-5.8,3.3-8.7,5.1c0.6,1.2,1.2,2.3,2,3.3c-0.3,0.5-1,0.5-1.3,1.1c-1.4-1.4-2.1-3.5-3.3-5.1
		c2.9-2.3,6.7-3.7,9.7-5.8C192.6,327.3,192.1,328.7,193,329z"/>
	<path fill="#2B7D3E" d="M43.6,333.5c-0.2,0.7-0.8,1.2-1.1,2c-0.8-0.4-1.8-0.7-2.8-1.1c-0.6,0.4-0.7,1.3-1.3,1.8
		c0.1,1.3,1.6,1.3,2,2.3c0,0.9-0.8,0.9-0.7,1.8c-3.4-2.2-6-5.2-8.9-7.9c0.2-1.1,1-1.6,1.3-2.6C35.9,331.1,39.7,332.3,43.6,333.5z
		 M33.4,332.5c1.5,0.7,2.1,2.3,3.8,2.8c0.2-0.5,0.5-1,0.7-1.5C36.3,333.7,33.8,332,33.4,332.5z"/>
	<path fill="#2B7D3E" d="M196.6,336.1c-3.7,1.4-6.7,3.7-10.4,5.1c0-0.9-0.7-1.2-0.7-2c3.5-1.5,6.7-3.3,10-5.1
		C196,334.4,196.5,335.1,196.6,336.1z"/>
	<path fill="#2B7D3E" d="M33.2,339.9c1.6-1.2,3.9,0.9,6.4,1.1c-0.3,0.6-0.4,1.6-1.1,2c-2.2-0.5-5.2-2.4-5.8,0.7
		c1.3,0.9,2.9,1.4,4.4,2c0.1,1-0.4,1.3-0.5,2c-3.8-1.3-7-3.2-10.7-4.6C25.7,339.4,31.2,334.3,33.2,339.9z M28.3,341.9
		c1.1,0.2,1.6,1,2.8,1.1C33.9,340.3,28,337.9,28.3,341.9z"/>
	<path fill="#2B7D3E" d="M197.1,345.7c-0.3-0.4-0.3-1.2-0.7-1.5c0.1-1.1,1.8-0.5,1.5-2c-1.9-1.9-7.6,0.3-8.2,3.1
		c0.3,1.1,2.2,0.3,3.1,0.2c0.1,0.6,0.3,1.2,0.7,1.5c-2.7,2.8-6.5-0.5-5.8-3.6c0.6-3.1,9-4.8,10.4-4
		C200,340.3,200.8,345.5,197.1,345.7z"/>
	<path fill="#FFFFFF" d="M31,343c-1.2-0.1-1.8-0.7-2.8-1.1C28,337.9,33.9,340.3,31,343z"/>
	<path fill="#2B7D3E" d="M105.3,342.2c2.3,3.3,3.7,7.3,5.3,12c0.2,0.7,0.9,1.4,1.1,2c0.2,1.1-0.2,2.4,0,3.6
		c1.1,4.6,6.5,7.4,10.4,9.5c-1.1,3-7.2,2.1-6.6,5.8c3.2,0.6,4.5-2.7,7.7-2.8c0.4,0.4,0.2,1.5,0.2,2.3c0.6,0.5,2,0.2,3.1,0.2
		c0.4,2.4,2.2,7,0.2,8.7c-4.9-2.5-16.4,1.2-21.1-2c-0.2-1.6,0.4-2.4,0.2-4c-2.3-1.7-3.5,1.4-3.1,4c-1.6-0.5-3.6-0.6-4.9-1.5
		c-0.5-1-0.5-2.5-0.7-3.8c-1.2-0.3-1.1,0.7-2.3,0.5c-0.6-2.6-1.1-6.6-0.2-9.1c0.8-0.4,1.9-0.6,2.3-1.5c0.5,0.7,6.4,2.2,7.9,1.8
		c4.6-1.3-1-9,1.3-13.3c-0.3-0.9-1.3-1.1-1.5-2C106.3,349.4,104.9,345.9,105.3,342.2z"/>
	<path fill="#2B7D3E" d="M29,348.8c1.7-1.6,5.1-0.3,5.8,1.3c0.2,2.4-1,3.5-1.1,5.6c-3.7-1.1-7.3-2.2-11.3-3.1
		C22.1,348.3,26.8,344.5,29,348.8z M24.7,350.8c1.1,0.2,1.8,0.7,3.1,0.7c-0.1-0.9,0.4-0.9,0.2-1.8c-0.6-0.5-1.3-1-2.5-0.7
		C25.1,349.6,25,350.3,24.7,350.8z M29.3,352.1c1.2,0.4,2.3,0.7,3.6,1.1c-0.1-0.9,0.4-1.1,0.2-2C32,349.8,29.2,349.7,29.3,352.1z"/>
	<path fill="#FFFFFF" d="M25.5,349c1.3-0.2,1.9,0.3,2.5,0.7c0.2,0.9-0.4,1-0.2,1.8c-1.3,0-2-0.5-3.1-0.7
		C25,350.3,25.1,349.6,25.5,349z"/>
	<path fill="#FFFFFF" d="M33.2,351.2c0.2,1-0.3,1.2-0.2,2c-1.3-0.3-2.4-0.6-3.6-1.1C29.2,349.7,32,349.8,33.2,351.2z"/>
	<path fill="#2B7D3E" d="M198.9,356.5c-0.7,0.5-1.5,1.3-2,2c0.9,0.1,1.4-0.1,2-0.2c0.1,0.6,0.4,1,0.2,1.8c-2.9,0-4.7-0.4-5.6,1.5
		c-0.3-0.3-1.3-2.2-0.2-2.3c-4.4-3.3,1.5-9.4,5.1-5.3c1.8-2,5.5-1.9,5.6,1.1C204,357.2,200.9,358.5,198.9,356.5z M200.2,355.4
		c0.3,0.4,1.7,0.4,2,0c0-0.3,0-0.6,0-1.1C201.3,354,200.5,354.6,200.2,355.4z M194.2,357.8c1.3-0.6,2.2-1.6,2.8-2.8
		C194.9,353.7,192.2,356.2,194.2,357.8z"/>
	<path fill="#FFFFFF" d="M202.2,354.5c0,0.3,0,0.6,0,1.1c-0.3,0.4-1.7,0.4-2,0C200.5,354.6,201.3,354,202.2,354.5z"/>
	<path fill="#FFFFFF" d="M197.1,355c-0.6,1.3-1.6,2.2-2.8,2.8C192.2,356.2,194.9,353.7,197.1,355z"/>
	<path fill="#2B7D3E" d="M33.2,356.3c0.7,0.5-0.3,1.4,0,2.3c-1,0-1.9,0-2.8,0c-0.7,0.2-0.5,1.5-0.7,2.3c0.5,0.9,2,0.7,2.5,1.5
		c0.2,1-0.3,1.2-0.2,2c-3.7-1.6-7.3-3.2-10.9-4.9c0.1-1.1,0.4-1.8,0.5-2.8C25.1,356.4,29.5,356.8,33.2,356.3z M28,360.3
		c-0.2-1,0.4-1.4,0-1.8c-1.5,0.2-3.7-0.3-4.9,0.2C25.1,358.9,26,360.1,28,360.3z"/>
	<path fill="#FFFFFF" d="M23.2,358.8c1.1-0.6,3.3-0.1,4.9-0.2c0.4,0.4-0.2,0.8,0,1.8C26,360.1,25.1,358.9,23.2,358.8z"/>
	<path fill="#2B7D3E" d="M30.3,364.3c0.8-0.1,0.8,0.4,1.8,0.2c-0.5,1.9-0.5,4.3-1.1,6.2c-3.7-0.6-7.4-1.2-11.5-1.5
		c-0.2-1.1,0.4-1.3,0.2-2.3c3.2,0.6,6.8,0.9,10,1.5C29.9,367,30.3,365.9,30.3,364.3z"/>
	<path fill="#2B7D3E" d="M205.7,365.9c-0.1,2.1,0.7,4.3,0,6.2c-1.1,1.1-3.5,1.3-5.3,0.7c-1-1-1.4-2.3-1.3-4.4
		c-1.6,0.2-3.4,0.3-5.1,0.5c0-0.7,0-1.5,0-2.3C198.2,366.7,201.7,365.9,205.7,365.9z M200.9,370.3c0.6,0.8,2.3,1,3.3,0.2
		c0-0.7,0-1.5,0-2.3C202.1,368.3,200,367.6,200.9,370.3z"/>
	<path fill="#FFFFFF" d="M204.2,368.2c0,0.7,0,1.5,0,2.3c-1,0.7-2.7,0.6-3.3-0.2C200,367.6,202.1,368.3,204.2,368.2z"/>
	<path fill="#2B7D3E" d="M194.5,374.9c4,0,7.5,0.4,11.7,0.2c1.5,5.4-2.4,9.7-5.6,5.8c-0.6,1.9-4.3,0.9-6.2,1.5c0-0.7,0-1.5,0-2.3
		c1.5,0,2.4-0.4,4-0.2c0.9-0.3,1.2-1.3,1.1-2.6c-1.2-0.6-3.5-0.1-5.1-0.2C194.5,376.3,194.5,375.6,194.5,374.9z M201.7,379.6
		c0.7,0.7,2,0.5,2.8,0c0-0.9,0-1.7,0-2.5c-1.1,0-2,0-3.1,0C201.5,377.9,201.2,379.2,201.7,379.6z"/>
	<path fill="#2B7D3E" d="M30.8,375.8c0.5,0.4,1,2.5-0.2,2.5c3.9,4.4-4,8.4-6.2,3.8c-4.5,3.8-8.2-5-1.5-4c0.6,0.4,1.1,1.1,1.8,1.5
		c0.7-0.4,1.4-1.1,2.3-1.3c-0.4-0.5-1.7-0.2-2-0.7c0-0.4,0-0.9,0-1.3c1.7-0.2,2.8,0.3,3.8,0.7C29.6,376.9,30.2,376.3,30.8,375.8z
		 M29.8,380.7c0.2-2.3-3.1-0.4-3.8,0.7C27.4,383,29.6,381.9,29.8,380.7z M20.8,380.9c0.6,0.5,2.1,0.2,2-0.7
		C22.1,379.6,20.8,379.4,20.8,380.9z"/>
	<path fill="#FFFFFF" d="M201.5,377.1c1.1,0,2,0,3.1,0c0,0.9,0,1.7,0,2.5c-0.9,0.5-2.1,0.7-2.8,0
		C201.2,379.2,201.5,377.9,201.5,377.1z"/>
	<path fill="#FFFFFF" d="M25.9,381.4c0.7-1.2,4-3.1,3.8-0.7C29.6,381.9,27.4,383,25.9,381.4z"/>
	<path fill="#FFFFFF" d="M23,380.2c0.1,1-1.4,1.3-2,0.7C20.8,379.4,22.1,379.6,23,380.2z"/>
	<path fill="#2B7D3E" d="M194.2,383.8c3.8,0.4,7.4,1.1,11.5,1.3c0.1,1,0,1.7-0.2,2.3c-3.7-0.6-7.9-0.9-11.5-1.5
		C194,385.1,193.9,384.1,194.2,383.8z"/>
	<path fill="#2B7D3E" d="M205.5,388.9c-0.2,0.7-0.3,1.6-0.5,2.3c-3.2,0-6.5,0-9.7,0c2.9,1.2,5.9,2.2,9.1,3.1
		c-0.1,0.7-0.2,1.7-0.5,2.3c-3.7-1.4-7.4-2.8-10.9-4.4c0-1.1,0.3-1.9,0.5-2.8C197.5,389.3,201.5,389,205.5,388.9z"/>
	<path fill="#2B7D3E" d="M31.9,390.7c1.2,1.4,1.4,3.7,1.8,5.8c-3.7,0.9-7.5,1.7-11.3,2.5C18.1,392.1,26,389.2,31.9,390.7z
		 M23.2,394.2c-0.2,1.1,0.2,1.5,0.2,2.3c2.9-0.4,5.5-1.2,8.2-1.8C31.3,390.5,24.9,393.1,23.2,394.2z"/>
	<path fill="#FFFFFF" d="M31.6,394.7c-2.7,0.6-5.2,1.4-8.2,1.8c0-0.9-0.4-1.3-0.2-2.3C24.9,393.1,31.3,390.5,31.6,394.7z"/>
	<path fill="#2B7D3E" d="M131.5,392.4c-0.6,2.8-2.9,5.3-1.8,8.9c1,0,1.2-0.9,2.3-0.7c0.7,3.9,5.6,2.2,8.7,3.1
		c0.2,1.3-0.6,1.6-1.1,2.3c0.3,1.1,1.3,1.6,1.8,2.6c-0.1,1.2-0.5,2.8,0,3.8c0.7,0.3,1,0.1,1.3-0.5c0.5,0.3,0.5,1.2,0.7,1.8
		c0.7,0.2,0.6-0.3,1.3-0.2c-0.1,1.3-0.5,2.1-1.1,3.1c-0.5-0.2-0.7-0.7-0.7-1.5c-0.6,0-0.9-0.5-1.1,0.2c-0.5-1.2-0.2-3.2-1.5-3.6
		c-2.2,0.4-2.3,2.9-4.6,3.3c0.2-0.9,0.7-1.3,0.5-2.5c-3.5,0.5-8.8,0.6-13.5,0c-0.8-1.9,2-3,0.7-5.3
		C127.5,403.6,126.8,395.4,131.5,392.4z"/>
	<path fill="#2B7D3E" d="M192.5,394.2c3.8,1.5,6.9,3.8,10.7,5.3c-0.3,0.8-0.6,1.7-0.7,2.8c-4.1,0-8.2-0.2-12-0.5
		c0.1-0.7,0.2-1.5,0.5-2c1,0,1.9,0,2.8,0c0.6-0.3,0.5-1.4,0.7-2c-0.5-0.9-1.7-1-2.6-1.5C192,395.5,192.2,394.8,192.5,394.2z
		 M195.8,400c1.7,0,3.9,0.6,5.1,0.2c-1.9-0.4-3.1-1.6-4.9-2C196.2,399.2,195.7,399.3,195.8,400z"/>
	<path fill="#2B7D3E" d="M28,406c2.4-1.1,5.1-2,7.9-2.8c-0.1,1,0.4,1.3,0.5,2c-3.9,1-7.2,2.5-11.3,3.3c-1.2-3.8,4.1-5.1,6.4-7.1
		c-2.3,0-4.9,2-7.9,2.3c-0.2-0.6-0.6-1.1-0.5-2c3.8-1,7.2-2.2,10.9-3.3c0.4,0.4,0.3,1.4,0.7,1.8C32.9,402.4,30.2,403.9,28,406z"/>
	<path fill="#FFFFFF" d="M196,398.3c1.8,0.5,3,1.7,4.9,2c-1.2,0.4-3.4-0.3-5.1-0.2C195.7,399.3,196.2,399.2,196,398.3z"/>
	<path fill="#2B7D3E" d="M198.9,406.9c0.5-0.5,0.7-1.4,1.1-2.3c0.4,0.2,1,0.4,1.5,0.5c-0.4,2.6-1.8,4.1-2.3,6.6
		c-0.7,0-1.2-0.3-1.8-0.5c0.2-0.7,0.6-1.3,0.7-2c-2.7-1.6-5.9-2.5-9.1-3.6c0.1-0.9,0.4-1.4,0.7-2
		C192.8,404.6,195.8,405.9,198.9,406.9z"/>
	<path fill="#2B7D3E" d="M36.7,405.7c0.5,0.4,0.6,1.3,1.1,1.8c-0.3,1.2-1.8,1.1-2.3,2c0,0.9,0.7,1.2,0.7,2c1.2,0,2.1-0.1,2.8-0.5
		c0.7,0.2,0.6,1.4,1.3,1.8c-3.5,1.4-8.1,1.6-12,2.5c-0.2-1.1-0.8-1.7-1.1-2.8C30.4,410.3,33.6,408,36.7,405.7z M29.8,413.3
		c1.3-0.9,3.8-0.4,4.9-1.5c-0.5-0.2-0.3-1.2-1.1-1.3C32.6,411.6,30.2,412.5,29.8,413.3z"/>
	<path fill="#2B7D3E" d="M187.6,408.5c3.5,1.7,6.8,3.6,10.4,5.1c-0.8,1.9-1.6,3.8-2.8,5.3c-0.6,0-0.7-0.4-1.3-0.5
		c0.3-1.3,1.1-2.2,1.5-3.3c-0.4-0.9-1.8-0.7-2.3-1.5c-1,0.6-1.2,2.1-1.8,3.1c-0.7,0.1-0.7-0.5-1.5-0.5c0.3-1.2,0.9-2.2,1.5-3.1
		c-0.6-1-2.1-1.2-3.1-1.8c-0.9,0.9-1.3,2.1-1.8,3.3c-0.7,0.1-0.7-0.5-1.5-0.5C185.5,411.7,187.1,410.7,187.6,408.5z"/>
	<path fill="#2B7D3E" d="M40.3,413.3c1.5,1.4,2,3.6,3.3,5.1c-3.3,2.1-6.7,4-10.4,5.6c-0.2-0.6-0.7-1-0.7-1.8c3-1.5,5.6-3.2,8.7-4.6
		c-0.7-1.1-1.1-2.4-2-3.3C39.1,413.6,40.1,413.9,40.3,413.3z"/>
	<path fill="#2B7D3E" d="M182.3,418.2c3.5,1.7,6.6,4,10,5.8c-0.7,2-2,3.4-3.1,5.1c-0.7,0-1-0.5-1.5-0.7c0.7-1,1.3-2.1,2-3.1
		c-0.4-1-1.7-1-2.3-1.8c-0.7,1-1.5,1.9-2,3.1c-0.6-0.1-0.7-0.7-1.5-0.7c0.5-1.1,1.2-1.8,1.8-2.8c-0.3-1.3-1.8-1.3-2.6-2
		c-1.3,0.5-1.6,2-2.3,3.1c-0.7,0-0.9-0.6-1.5-0.7C180.1,421.4,181.4,420,182.3,418.2z"/>
	<path fill="#2B7D3E" d="M48.7,425.5c-2.8,2.7-6.5,4.4-9.5,6.9c-1-1.8-3.3-3-3.3-5.1c0-2.4,6.2-7.2,9.5-5.8
		C47.4,422.4,46.6,424.3,48.7,425.5z M39.5,429.7c1.9-1.8,4.7-2.9,6.4-4.9C44,421.1,35.7,427,39.5,429.7z"/>
	<path fill="#FFFFFF" d="M45.9,424.8c-1.7,2-4.5,3-6.4,4.9C35.7,427,44,421.1,45.9,424.8z"/>
	<path fill="#2B7D3E" d="M178.5,430.4c1,1.6,3.1,4,4.6,5.8c-0.4,1.2-1.5,1.7-2,2.8c-3.1-2.2-5.8-4.9-8.9-7.1
		c0.1-0.9,0.7-1.2,1.1-1.8c2.9,1.7,5.1,4,7.6,6.2c-1.7-3-4.4-5-5.8-8.2c3.2-0.6,6.4,2.7,9.5,3.8c-0.1-0.6-1.9-1.7-3.6-3.1
		c-2-1.6-5.5-3.3-2-4.6c0.7,1,2.5,2,4.4,3.6c2.8,2.3,6.1,3.7,2,6.2C182.6,433,180.4,431.9,178.5,430.4z"/>
	<path fill="#2B7D3E" d="M49.7,427.1c0.6,0.5,1.2,1.2,1.5,2c-1.5,2.1-2.6,4.8-4,6.9c1.7-0.9,3.8-3.5,5.8-4.9
		c0.8,0.1,0.7,1.2,1.5,1.3c-2.7,2.8-5.8,4.8-8.7,7.4c-1,0-1-1.1-1.8-1.3c1.3-2.7,2.8-5.2,4.4-7.6c-1.9,1-3.8,3.9-6.4,5.1
		c-0.2-0.6-0.8-0.6-1.1-1.3C43.5,431.7,47,429.8,49.7,427.1z"/>
	<path fill="#2B7D3E" d="M178.7,441.2c-1.6,0.4-2.4,3.3-4.4,3.6c-4.3,0.7-5.7-5.6-2-7.1c-1-1.8-4.8-3.1-2-4.9
		C173.4,435.2,176.3,438,178.7,441.2z M173.4,438.8c-2.8,1.8,1,5.5,2.6,2.5C175.4,440.2,174.6,439.4,173.4,438.8z"/>
	<path fill="#2B7D3E" d="M53.6,447c-0.2-0.5-0.7-0.7-1.3-1.1c1.6-3,4.5-4.8,6.2-7.6c-2.1-4.8-6.5,3.9-8.4,5.3
		c-0.6-0.4-1.7-0.9-1.8-1.3c0-0.1,5.9-7.8,7.9-7.9c1.4-0.1,4,1.6,4.4,3.3C61.1,441.8,54.9,444.4,53.6,447z"/>
	<path fill="#2B7D3E" d="M164.5,438.1c2.5,3,5.2,5.8,7.4,9.1c-0.9,0.1-0.9,1-1.8,1.1c-1.9-2.7-3.9-5-6.2-7.4c-1.2,0.6-2,1.5-3.1,2.3
		c-0.4-0.2-0.7-0.5-1.1-1.1C161,440.4,163.1,439.7,164.5,438.1z"/>
	<path fill="#FFFFFF" d="M176,441.4c-1.6,3-5.3-0.7-2.6-2.5C174.6,439.4,175.4,440.2,176,441.4z"/>
	<path fill="#2B7D3E" d="M62.9,440.6c1.3-0.3,4.4,0.2,4.9,2.5c0.5,2.4-1.9,4.6-2.6,5.3c-1.1,1.3-2.2,3.5-4,3.6
		c-1.9,0.1-3.8-1.7-4-3.1C56.6,446.3,60.8,441.2,62.9,440.6z M59.1,448.8c2.8,3.1,5.7-2.5,6.4-5.6C62.3,441.2,60.5,446.5,59.1,448.8
		z"/>
	<path fill="#FFFFFF" d="M65.4,443.2c-0.6,3.1-3.6,8.6-6.4,5.6C60.5,446.5,62.3,441.2,65.4,443.2z"/>
	<path fill="#2B7D3E" d="M157.3,443.4c2-0.1,7.1,5.2,6.6,8.7c-0.2,1.5-2.4,3.1-4,3.1C156.5,455.1,149.3,444,157.3,443.4z
		 M157.3,445.5c-4.5-0.2,1.6,8.1,3.3,7.7c0.2-0.3,0.6-0.5,1.1-0.7C161.3,450.4,159.2,445.6,157.3,445.5z"/>
	<path fill="#FFFFFF" d="M161.6,452.3c-0.3,0.2-0.7,0.4-1.1,0.7c-1.8,0.4-7.8-7.9-3.3-7.6C159.2,445.6,161.3,450.4,161.6,452.3z"/>
	<path fill="#2B7D3E" d="M73.1,446.3c0.8,0.2,1.3,0.7,2,1.1c-2,3.3-3.9,6.6-5.8,10c-1.8-1-3.6-2-5.3-3.1c0.1-0.5,0.5-0.6,0.5-1.3
		c1.6,0.2,2.4,1.2,3.6,1.8c0.7-0.6,1.3-1.5,1.5-2.6c-1-0.6-2-1.3-3.1-1.8c0.2-0.5,0.5-1.1,0.7-1.5c1.1,0.6,2.1,1.3,3.3,1.8
		C71.5,449.2,72.4,447.7,73.1,446.3z"/>
	<path fill="#2B7D3E" d="M156.5,457c-0.4,0.5-1.3,0.6-1.8,1.1c-1.6-0.6-2.4-2.1-3.8-3.1c-0.1,1.7,0.4,2.8,0.2,4.6
		c-0.5,0.4-1.4,0.5-1.8,1.1c-0.5-4.1-0.2-9.1-2.5-11.5c0.3-0.5,1.3-0.4,1.5-1.1C150.6,451.5,153,454.8,156.5,457z"/>
	<path fill="#2B7D3E" d="M78.5,451.4c-1.3,1.8-3.3,5.2-4.6,7.9c-1.2,0.2-1.3-0.6-2.3-0.5c1.8-3.6,4.3-6.4,6.2-10
		c1.1,0,1.5,0.7,2.6,0.7c-0.3,2.8-1.2,5-1.5,7.6c1.3-2.1,2.7-4.1,3.8-6.4c1.2-0.1,1.7,0.5,2.5,0.7c-0.5,3.9-1.6,7.2-2,11.3
		c-0.6,0.5-1.4-0.5-2.3-0.5c0.7-3.1,1.6-6.1,2.3-9.1c-1.7,2.7-3.2,5.5-5.1,7.9c-0.6-0.1-1.1-0.3-1.5-0.5
		C76.9,457.3,77.7,454.2,78.5,451.4z"/>
	<path fill="#2B7D3E" d="M206.8,450.3c4.8,8.4,1.8,21.7,2.5,34.2c-1.8,2-3.1,3.4-6.2,4c-2.3,0.5-4.9-0.4-7.4,0
		c-2,0.3-5.3,3.6-7.6,5.1c-15.3,10-34.3,16.3-57.9,18.4c-5.5,0.5-10.1,2.3-16.8,1.8c-2.2-0.2-4.4-1.3-6.6-1.5c-6.9-1-13.6-1-20.2-2
		c-18.7-3.1-35.4-8.6-49-17.1c-5.8,1.9-13.7,1-15.8-4.4c-1.6-3.9-1-10.6-1.1-15.8c0-5.1-1-11.9,0.2-15.8c1.2-3.5,7.3-6.9,12.2-5.3
		c4.3,1.4,5.6,4.7,8.2,6.6c9,7,20.8,12.2,33.9,16.6c6.3,2.1,13.2,3.8,20.4,4.9c16.9,2.4,31.8,1.1,46.4-2.6
		c18.1-4.5,32.5-12.1,45.4-21.9C192.4,451.8,198.5,445.8,206.8,450.3z M198.4,454.1c-1.6,0.4-3,2.1-4.9,3.3c-1.5,1-3.1,1.4-4.4,2
		c-2,1.2-3.6,3.2-5.6,4.6c-15.2,11-35.8,16.7-57.4,21.1c-1.5,6.2-1.6,16.6,1.1,21.7c22.7-1.1,40.5-5.7,55.4-15.1
		c3.6-2.2,11.8-7.2,12.5-11.3c0.5-3-0.5-7.3-0.7-10.9c-0.2-3.3-1.4-8.2,0-10.9c0.7-1.6,3.5-3,5.3-2.5c2.1,0.4,1.5,2.9,3.3,4
		C206.4,457.1,202.8,452.9,198.4,454.1z M196.6,460.5c1,0.3,1.3,1.3,2.8,1.1c0.5-0.9,0.7-3,0.2-4C197.7,456.6,196,458.2,196.6,460.5
		z M84.6,482.7C66.8,479,51.7,471,38.9,462.5c-2-1.3-6.3-4.7-8.2-5.1c-5.3-1.1-6.4,4.4-3.8,7.1c1.2-2.8,2.4-6.4,6.9-4.4
		c4,2.8,2.5,10.3,2.5,16c0,3.9,0.2,8.2,2.3,10.9c2,2.8,6.2,4,9.7,5.6c15.9,7.1,35.5,13.8,57.2,13.5c2.2-5,1-14.7,1.8-20.2
		C99.3,484.4,92,484.3,84.6,482.7z M30.6,466.3c2.5,0.2,3.2-1.4,3.1-3.8C31.3,459.2,28,463.9,30.6,466.3z M196.4,463.4
		c-1,6.9-0.5,14.5,1.1,20.4c2,1.7,5.4,0.2,7.1-0.7c-0.1-7.4,0.4-14.3-0.7-20.4C201,462.6,198.7,463,196.4,463.4z M33.9,466.7
		c-2.2,0.7-5,1.5-7.6,1.1c-0.6,3.4,0.5,11,0.7,15.8c0.2,3,0,5.7,2,6.6c1.4,0.5,4.9,0,6.4-1.1C35.2,481.3,36.1,472.4,33.9,466.7z
		 M114.2,484.2c1.3,1.6,3.4,0,5.6,0.2C119.2,482.9,115.2,483.2,114.2,484.2z M109.9,485.8c-0.3,0.1-0.5,0.3-0.5,0.7
		c-0.3,6.5-1.5,14.5-0.5,20.6c2.7,2.5,10.3,2.1,14,0.7c1.3-6.9,0-14.5,0.5-21.9C119.4,485.5,114.3,485.9,109.9,485.8z"/>
	<path fill="#2B7D3E" d="M147,461.2c-1.8,0.6-3.5,1.4-5.6,1.8c-0.1-0.5-0.6-0.7-0.5-1.5c1.4-0.1,2.2-0.7,3.6-1.1
		c0-1.2-0.6-1.8-0.7-2.8c-1.4,0.1-2.2,0.7-3.6,1.1c-0.1-0.4-0.1-1.1-0.5-1.3c0.9-0.7,2.2-0.9,3.3-1.3c-0.1-1.3-0.6-2.2-1.1-3.3
		c-1.6,0-2.4,0.7-3.8,1.1c0.1-0.7-0.5-0.7-0.5-1.5c2-0.5,3.7-1.4,5.8-1.8C144.6,454.2,146.2,457.4,147,461.2z"/>
	<path fill="#2B7D3E" d="M93.8,454.1c-0.9,3.8-2.1,7.2-3.1,10.9c-2-0.4-3.8-1.1-5.8-1.5c-0.2-0.8,0.4-1,0.2-1.8
		c1.2,0.4,2.3,0.9,3.8,1.1c0.4-0.7,0.6-1.6,0.7-2.5c-0.9-0.5-2.1-0.7-3.3-1.1c-0.2-0.7,0.4-0.7,0.2-1.5c1.5,0,2.2,0.6,3.6,0.7
		c0.4-0.9,0.6-2,1.1-3.1c-0.7-1-2.4-1-3.8-1.3C88,451,91.7,454,93.8,454.1z"/>
	<path fill="#2B7D3E" d="M136.4,452.6c1.3,3.5,2.3,7.3,3.3,11.3c-2.1,0.3-3.8,1.1-5.8,1.5c0.2-0.7-0.4-0.7-0.2-1.5
		c1.1-0.4,2.2-0.7,3.6-1.1c-0.1-1.1-0.4-2-0.7-2.8c-1.4,0.1-2.2,0.6-3.6,0.7c0.2-0.7-0.4-0.7-0.2-1.5c1.2-0.1,1.9-0.7,3.3-0.7
		c0-1.4-0.7-2.1-0.7-3.6c-1.5,0.2-2.7,0.7-4,1.1c0.2-0.7-0.4-0.7-0.2-1.5C132.5,453.6,134.7,453.5,136.4,452.6z"/>
	<path fill="#2B7D3E" d="M95.3,454.4c1-0.1,1.3,0.4,2.3,0.2c0.5,2.9,1.2,5.6,1.5,8.7c0.5-2.5,0.8-5.2,1.3-7.9
		c1.1-0.2,1.3,0.4,2.3,0.2c-0.8,3.7-1.5,7.5-2.3,11.3c-1.1,0.2-1.3-0.4-2.3-0.2c-0.3-3.1-1.2-5.4-1.3-8.7c-0.8,2.3-0.7,5.5-1.5,7.9
		c-0.8,0.1-1.4-0.1-2-0.2C93.7,461.7,94.8,458.3,95.3,454.4z"/>
	<path fill="#2B7D3E" d="M130.3,458.5c-0.7-0.2-1,0.2-1.5,0.2c-0.7-1-1.6-3.3-3.3-1.8c0,4.6,7.9,2.5,5.6,8.4
		c-1.8,1.9-6.5,1.6-6.6-1.5c0.1-0.7,1.5-0.2,1.8-0.7c0.7,0.3,0.4,1.8,1.5,1.8c0.9,0.1,1.2-0.4,1.5-0.7c-1.2-3.3-7.9-2.3-5.8-7.9
		C125.3,453.9,130.9,454.1,130.3,458.5z"/>
	<path fill="#FFFFFF" d="M199.6,457.4c0.5,1.1,0.3,3.3-0.2,4c-1.5,0.2-1.8-0.7-2.8-1.1C196,458.2,197.7,456.6,199.6,457.4z"/>
	<path fill="#FFFFFF" d="M107.3,486.3c-0.9,5.5,0.4,15.2-1.8,20.2c-21.7,0.3-41.2-6.4-57.2-13.5c-3.5-1.6-7.7-2.9-9.7-5.6
		c-2.1-2.8-2.3-7-2.3-10.9c0-5.7,1.5-13.4-2.5-16c-4.4-2-5.7,1.6-6.9,4.4c-2.5-2.8-1.5-8.2,3.8-7.1c1.9,0.4,6.2,3.8,8.2,5.1
		c12.9,8.5,27.9,16.4,45.7,20.2C92,484.3,99.3,484.4,107.3,486.3z M41.2,485.8c0.7,0,0.8,0.6,1.5,0.7c0.2-1.1,0.4-2.3,1.1-3.1
		c0.3,0.8,1.6,0.6,1.8,1.5c0,1.9-0.3,4,1.5,4c0.1-5.2,0.4-10.3,0.2-15.8c-1,0-1-1-2-0.7C44.2,477.1,42.7,481.3,41.2,485.8z
		 M51.4,490.6c1.2,0.6,2.7,1.1,3.8,1.8c-0.1-1,0-1.7,0.2-2.3c-0.7-0.4-1.7-0.6-2.3-1.3c0.5-4,1-8.2,1.3-12.5c-0.8,0.1-1-0.3-1.5-0.5
		C52.5,480.8,52.1,485.8,51.4,490.6z M59.9,481.2c0.5,0.2,1.4,0.1,1.5,0.7c-0.4,4.1-0.7,8.2-1.1,12.5c0.8-0.1,1,0.3,1.5,0.5
		c0.5-4,0.4-8.7,1.3-12.5c0.7-0.1,0.7,0.5,1.5,0.5c0-0.9-0.2-1.9,0.2-2.3c-1.7-0.5-3.1-1.4-4.9-1.8
		C60.3,479.9,59.9,480.4,59.9,481.2z M69.3,481.6c-0.2,4.6-1.8,11.1-1.1,15.1c0.3,0,0.3,0.3,0.7,0.2c1.3-4.4,1.2-10.1,1.8-15.1
		C70,482.1,70.1,481.5,69.3,481.6z M78,499.8c3-0.4,4.6-19-1.5-15.3C75.1,487.4,73,500.5,78,499.8z M85.6,487.3
		c-0.2,2.4-0.5,6.4-0.7,9.5c-0.1,1.8-1.1,5.1,1.3,5.1c0-2.3,0-4.6,0.5-6.4c3.2,0.5-1.2,7,2.6,7.1c-0.2-2.7,0.6-6.5-0.7-7.9
		c1.6-1.1,1.6-5.2,0.7-7.1c-1.1-0.5-2.1-1-3.6-1.1C85.6,486.7,85.6,487.1,85.6,487.3z M96.4,489.1c-0.4,2.1-0.8,4.9-1.3,7.4
		c-0.4,2.3-1.5,5.7-0.2,6.9c1.6,0.3,0.1-2.4,1.3-2.5c0.5,0,1.1,0,1.5,0c0.1,1.2,0,2.8,1.1,3.1c1.2-4.4-0.3-10.4-0.2-15.3
		c-0.8,0.1-1.4-0.1-2-0.2C96.4,488.5,96.4,488.9,96.4,489.1z"/>
	<path fill="#FFFFFF" d="M33.6,462.5c0.1,2.4-0.5,4-3.1,3.8C28,463.9,31.3,459.2,33.6,462.5z"/>
	<path fill="#FFFFFF" d="M203.7,462.5c1.2,6.1,0.6,13,0.7,20.4c-1.7,1-5.1,2.4-7.1,0.7c-1.6-6-2-13.5-1.1-20.4
		C198.7,463,201,462.6,203.7,462.5z"/>
	<path fill="#FFFFFF" d="M35.4,489.1c-1.5,1.1-5,1.6-6.4,1.1c-2.1-0.8-1.9-3.6-2-6.6c-0.3-4.8-1.4-12.4-0.7-15.8
		c2.7,0.4,5.4-0.2,7.6-1.1C36.1,472.4,35.2,481.3,35.4,489.1z"/>
	<path fill="#2B7D3E" d="M188.7,467.6c1.1,4.7,2.4,8.9,3.6,13.5c-0.6,0-0.9,0.4-1.3,0.7c-0.5-0.7-0.6-1.7-0.7-2.8
		c-0.9,0-0.9,0.9-1.8,0.7c-0.2,1.4,0.3,2,0.2,3.3c-0.7-0.1-0.7,0.5-1.5,0.5c-0.1-5.1-0.2-10.2-0.5-15.1
		C187.3,468.4,187.5,467.6,188.7,467.6z M188.2,477.6c0.2-0.4,0.8-0.4,1.3-0.7c-0.5-1.9-0.9-4-1.5-5.8
		C188.1,473.1,187.5,475.9,188.2,477.6z"/>
	<path fill="#FFFFFF" d="M187.9,471c0.6,1.8,1,3.9,1.5,5.8c-0.4,0.3-1.1,0.3-1.3,0.7C187.5,475.9,188.1,473.1,187.9,471z"/>
	<path fill="#2B7D3E" d="M180.7,472c1.2,1.6,1.7,5.2,0.5,7.1c1.9,1.1,1.5,4.5,2,6.9c-0.4,0.3-1.1,0.3-1.3,0.7
		c-1-1.5-0.5-4.3-1.3-5.8c-3.1,0.3-0.3,4.6-0.7,6.9c-0.6,0-1.1,0.1-1.3,0.5c-1.1-4.6-1.5-9.8-2-14.8
		C178.1,473,178.8,471.9,180.7,472z M178.5,475c0,1.6,0.3,2.7,0.5,4c1.8,0,1.4-3,1.1-4.4C179.5,474.2,178.9,474.8,178.5,475z"/>
	<path fill="#2B7D3E" d="M45.4,472.5c1.1-0.2,1.2,0.7,2,0.7c0.1,5.5-0.1,10.6-0.2,15.8c-1.8,0-1.6-2.1-1.5-4
		c-0.2-0.9-1.5-0.7-1.8-1.5c-0.6,0.7-0.7,1.9-1.1,3.1c-0.6-0.1-0.7-0.7-1.5-0.7C42.7,481.3,44.2,477.1,45.4,472.5z M44.3,481.4
		c0.5,0.2,0.7,0.7,1.5,0.7c-0.2-2.2,0.3-5.1,0-6.6C45.6,477.7,44.7,479.3,44.3,481.4z"/>
	<path fill="#FFFFFF" d="M180,474.8c0.3,1.3,0.7,4.4-1.1,4.4c-0.1-1.4-0.5-2.6-0.5-4C178.9,474.8,179.5,474.2,180,474.8z"/>
	<path fill="#FFFFFF" d="M45.9,475.6c0.3,1.5-0.2,4.4,0,6.6c-0.7,0-1-0.5-1.5-0.7C44.7,479.3,45.6,477.7,45.9,475.6z"/>
	<path fill="#2B7D3E" d="M53,475.8c0.5,0.1,0.7,0.6,1.5,0.5c-0.3,4.4-0.7,8.5-1.3,12.5c0.6,0.6,1.6,0.9,2.3,1.3
		c-0.2,0.6-0.3,1.4-0.2,2.3c-1.2-0.7-2.7-1.2-3.8-1.8C52.1,485.8,52.5,480.8,53,475.8z"/>
	<path fill="#2B7D3E" d="M169.3,476.1c4-1.1,5.9,16.1,1.3,15.5C168.1,491.3,165.4,477.1,169.3,476.1z M169.3,478.3
		c-0.6,2.9-0.1,8.6,1.8,10.7c1.4-2.5,0.1-8.4-1.3-10.7C169.6,478.3,169.5,478.3,169.3,478.3z"/>
	<path fill="#FFFFFF" d="M169.8,478.3c1.4,2.3,2.7,8.2,1.3,10.7c-1.9-2-2.4-7.8-1.8-10.7C169.5,478.3,169.6,478.3,169.8,478.3z"/>
	<path fill="#2B7D3E" d="M60.1,478.9c1.8,0.4,3.1,1.3,4.9,1.8c-0.4,0.4-0.2,1.5-0.2,2.3c-0.7,0.1-0.7-0.5-1.5-0.5
		c-0.8,3.8-0.7,8.4-1.3,12.5c-0.5-0.1-0.7-0.6-1.5-0.5c0.2-4.3,0.6-8.4,1.1-12.5c-0.1-0.6-1-0.5-1.5-0.7
		C59.9,480.4,60.3,479.9,60.1,478.9z"/>
	<path fill="#2B7D3E" d="M161.6,479.1c1.2,1.7,1.1,5.2,1.3,8.2c0.2,2.7,1.5,6.4-0.7,7.4c-0.6-4.7-1.4-10.7-1.3-15.3
		C161.2,479.4,161.6,479.4,161.6,479.1z"/>
	<path fill="#2B7D3E" d="M70.9,482c-0.6,5-0.5,10.6-1.8,15.1c-0.4,0.1-0.4-0.2-0.7-0.2c-0.7-3.9,0.8-10.5,1.1-15.1
		C70.1,481.5,70,482.1,70.9,482z"/>
	<path fill="#2B7D3E" d="M153.7,482.5c0.4,4.3,1.1,8.3,1.5,12.5c0.8-0.1,1.3-0.6,2.3-0.5c0.1,0.6-0.3,1.8,0.2,2
		c-1.1,0.6-2.4,1-3.8,1.3c-0.6-5-1.3-10-1.8-15.1C153,482.9,152.9,482.3,153.7,482.5z"/>
	<path fill="#FFFFFF" d="M119.9,484.5c-2.2-0.3-4.3,1.3-5.6-0.2C115.2,483.2,119.2,482.9,119.9,484.5z"/>
	<path fill="#2B7D3E" d="M76.5,484.5c6.1-3.7,4.6,14.9,1.5,15.3C73,500.5,75.1,487.4,76.5,484.5z M77.5,486.5
		c-0.6,3.1-1.5,8.5-0.2,10.9c2.1-1.8,1.7-8.3,1.3-10.9C78.2,486.5,77.8,486.5,77.5,486.5z"/>
	<path fill="#2B7D3E" d="M146.8,484.2c0,0.7,0,1.5,0,2.3c-0.6,0.2-1.3,0.4-2,0.5c-0.2,1.6,0.3,2.3,0.2,3.8c0.9-0.1,1.4-0.5,2.3-0.5
		c0.1,0.6-0.3,1.8,0.2,2c-0.4,0.5-1.5,0.6-2.3,0.7c0.2,1.4,0.3,2.9,0.5,4.4c0.9-0.1,1.4-0.5,2.3-0.5c0.2,0.6,0.3,1.4,0.2,2.3
		c-1.3,0.3-2.3,0.6-3.8,0.7c-0.6-4.9-1.3-9.8-1.5-15.1C144.4,484.8,145.5,484.4,146.8,484.2z"/>
	<path fill="#FFFFFF" d="M123.4,486c-0.4,7.4,0.7,15.1-0.5,21.9c-3.7,1.4-11.4,1.7-14-0.7c-1-6.2,0.2-14.1,0.5-20.6
		c0-0.4,0.2-0.6,0.5-0.7C114.3,485.9,119.4,485.5,123.4,486z M110.9,505.1c1.4,0,2.8,0,4,0c-0.1-1,0-1.7,0.2-2.3
		c-0.4-0.6-2.2,0.1-2.6-0.5c0-1.3,0-2.6,0-3.8c0.7,0,1.5,0,2.3,0c0-0.7,0-1.5,0-2.3c-1,0-2,0.1-2.3-0.5c0-1.1,0-2.2,0-3.3
		c0.7,0,1.5,0,2.3,0c0-0.7,0-1.5,0-2.3c-1.6,0.2-2.3-0.3-3.8-0.2C110.5,494.4,111,500.1,110.9,505.1z M116.8,492.4
		c0.5,0.1,1.7-0.3,1.8,0.2c0.1,3.9-1.1,9.1,0.2,12.5c2.1-0.3,1.3-3.5,1.3-5.6c0-2.4,0-5.1,0-7.1c0.6,0,1.2,0,1.8,0
		c0-0.9-0.2-1.9,0.2-2.3c-1.8,0-3.6,0-5.3,0C116.8,490.9,116.8,491.6,116.8,492.4z"/>
	<path fill="#2B7D3E" d="M133.3,490.1c-0.1,1.7,0.1,4.6,0.2,7.1c0.1,1.9,1.2,4.6-0.5,5.1c-1.5-4.1-1-10.3-1.5-15.3
		c1.2,0.2,1.5-0.3,2.6-0.2c0.4,3.7,1.3,6.8,1.5,10.7c0.6-3.3-0.1-7.9,0.5-11.3c1.1,0.2,1.5-0.2,2.3-0.2c0.5,3,0.5,6.8,0.7,10.2
		c0.1,1.8,1.1,4.1-0.2,5.1c-1.5-0.7-1-3-1.1-4.6c-0.2-2.3-0.5-4.9-0.5-7.1c-0.3,2.2-0.3,5.4-0.5,8.2c-0.1,1.4,0.7,3.8-1.1,4
		C134.2,498.7,134.2,494,133.3,490.1z"/>
	<path fill="#FFFFFF" d="M78.5,486.5c0.4,2.7,0.8,9.1-1.3,10.9c-1.2-2.4-0.3-8,0.2-10.9C77.8,486.5,78.2,486.5,78.5,486.5z"/>
	<path fill="#2B7D3E" d="M85.6,486.5c1.5,0.1,2.6,0.5,3.6,1.1c0.7,1.9,0.9,6.1-0.7,7.1c1.4,1.5,0.5,5.3,0.7,7.9
		c-3.7-0.1,0.6-6.6-2.6-7.1c-0.5,1.8-0.5,4-0.5,6.4c-2.3,0-1.4-3.3-1.3-5.1c0.2-3.1,0.5-6.9,0.7-9.5
		C85.6,487.1,85.6,486.7,85.6,486.5z M87.1,493.4c1.4-0.1,1.6-4.3,0-4.4c-0.2,0-0.3,0-0.5,0C86.9,490.4,86.1,492.9,87.1,493.4z"/>
	<path fill="#2B7D3E" d="M96.4,488.3c0.6,0.1,1.2,0.3,2,0.2c0,4.9,1.5,10.9,0.2,15.3c-1.1-0.3-0.9-1.8-1.1-3.1c-0.5,0-1.1,0-1.5,0
		c-1.2,0.1,0.3,2.9-1.3,2.5c-1.2-1.2-0.1-4.6,0.2-6.9c0.4-2.5,0.8-5.2,1.3-7.4C96.4,488.9,96.4,488.5,96.4,488.3z M97.3,498.2
		c0.5-1.8,0-4.7-0.2-6.6C97.3,493.6,94.9,498,97.3,498.2z"/>
	<path fill="#FFFFFF" d="M86.7,489.1c0.2,0,0.3,0,0.5,0c1.6,0.1,1.4,4.3,0,4.4C86.1,492.9,86.9,490.4,86.7,489.1z"/>
	<path fill="#2B7D3E" d="M111.1,489.8c1.5-0.1,2.2,0.4,3.8,0.2c0,0.7,0,1.5,0,2.3c-0.7,0-1.5,0-2.3,0c0,1.1,0,2.2,0,3.3
		c0.3,0.6,1.4,0.5,2.3,0.5c0,0.7,0,1.5,0,2.3c-0.7,0-1.5,0-2.3,0c0,1.3,0,2.5,0,3.8c0.3,0.6,2.1-0.1,2.6,0.5
		c-0.2,0.6-0.3,1.4-0.2,2.3c-1.4,0-2.8,0-4,0C111,500.1,110.5,494.4,111.1,489.8z"/>
	<path fill="#2B7D3E" d="M116.8,490.1c1.8,0,3.6,0,5.3,0c-0.4,0.4-0.2,1.5-0.2,2.3c-0.6,0-1.2,0-1.8,0c0,2,0,4.7,0,7.1
		c0,2.1,0.9,5.3-1.3,5.6c-1.3-3.3-0.1-8.6-0.2-12.5c-0.1-0.5-1.3-0.1-1.8-0.2C116.8,491.6,116.8,490.9,116.8,490.1z"/>
	<path fill="#FFFFFF" d="M97.1,491.6c0.2,1.9,0.7,4.8,0.2,6.6C94.9,498,97.3,493.6,97.1,491.6z"/>
	<path fill="#FFFFFF" d="M37.9,333.7c-0.2,0.5-0.5,1-0.7,1.5c-1.7-0.4-2.3-2.1-3.8-2.8C33.8,332,36.3,333.7,37.9,333.7z"/>
	<path fill="#FFFFFF" d="M105.8,280.2c31.9-2.2,56,10.1,72.5,24.4c16.6,14.4,30.3,35.1,32.6,64.8c2.4,31.3-10.3,55.4-25.3,71.6
		c-14.9,16.3-37.1,29.4-66.1,31.3c-31.1,2.1-56.3-10-72.7-24.2c-17.3-15-30.4-36-32.6-64.8c-2.5-32.4,10.2-54.9,25.3-71.5
		c11.2-12.3,25.8-22.5,45-28C91.2,281.9,98.7,280.7,105.8,280.2z M107.3,296.3c0.7,0,1.5,0,2.3,0c0.3-0.9,0.2-2.1,0.7-2.8
		c0.8,0,1.7,0,2.6,0c-0.1,1.2,0.3,1.8,0.5,2.8c0.7,0,1.5,0,2.3,0c-1-3.8-2-7.5-2.8-11.5c-1.1,0-2,0-3.1,0
		C109.1,288.8,108.3,292.6,107.3,296.3z M115.5,286.3c0.4,0.6,2.2-0.1,2.6,0.5c0,3.4-0.6,6.2-0.5,9.7c0.6,0,1.4,0,2,0
		c0.4-3.1,0.1-7,1.1-9.7c0.7-0.2,2.4,0.5,2.3-0.5c0-0.2,0-0.5,0-0.7C121,285.5,115.6,283.5,115.5,286.3z M103.5,285.3
		c0.4,3.6,0.7,7.3,0.7,11.3c0.7,0,1.5,0,2.3,0c-0.2-3.9-0.5-7.5-0.7-11.5C105,285.1,103.9,284.9,103.5,285.3z M94.8,287.1
		c-1,5.2,0.9,13.2,6.9,9.7c0.7-1,1-2.7,0.5-4c-0.8-0.1-1.1,0.4-2,0.2c-0.1,1,0.4,2.7-0.5,2.8c-3-0.1-3.9-7.2-1.8-8.4
		c1.4,0.3,1.5,2.8,3.6,1.5C101.6,285.1,96.7,285,94.8,287.1z M122.8,296.8c0.9-0.1,1.1,0.4,2,0.2c0.6-3.7,1-7.8,1.5-11.5
		c-0.7,0-1.5,0-2.3,0C124,289.5,123.1,292.9,122.8,296.8z M134.8,287.4c-4.8-4.1-8.7,4.6-7.4,9.7c1.1,1.2,2.9,1.7,5.3,1.5
		C134.7,296.9,137.6,289.8,134.8,287.4z M85.1,289.6c0,4.4,1.1,7.6,3.1,10c2.8,0.2,4.7-0.4,5.6-2c0-4-1.1-7-2.6-9.5
		C89,287,85.9,287.8,85.1,289.6z M135.6,299.6c1-0.1,1.3,0.4,2,0.5c0.7-2.5,1.5-5.2,2.3-7.6c-0.1,3.2,0.3,5.7,0.5,8.7
		c1.1-0.1,1.3,0.6,2.3,0.5c0.9-3.9,2.6-7,3.3-10.9c-1,0.1-1.3-0.4-2-0.5c-0.7,2.5-1.4,5.2-2.3,7.6c0-3.1-0.1-6-0.5-8.7
		c-0.7-0.1-1.3-0.4-2-0.5C137.9,292.3,136.6,295.8,135.6,299.6z M76,293.8c-0.2,4.8,6.5,1.9,7.1,6.2c-1.2,1.8-3,0-3.3-1.3
		c-0.3,0.6-1.7,0.2-1.8,1.1c0.8,5.8,10.8,1.4,6.4-3.1c-2.1-2.1-5.4,0.2-6.2-3.3c0.1-0.5,0.6-0.5,1.1-0.7c1.7,0.4,1.5,2.1,3.6,1.1
		C82.1,289,76.1,290.6,76,293.8z M67.8,296.8c-1.2,5.8,6.8,2.1,7.7,6.4c-1.2,1.8-2.9-0.1-3.6-1.1c-0.3,0.4-0.8,0.6-1.5,0.7
		c0.7,5.7,9.8,2.1,6.6-2.5c-1.5-2.2-6.1-0.3-7.1-3.3c0.2-0.5,0.7-0.7,1.3-1.1c1,0.1,1.1,1.1,1.8,1.5c0.3-0.4,0.9-0.6,1.5-0.7
		C73.6,292.6,68.2,294.5,67.8,296.8z M148.6,304c0.3,1.2,2.7,2.8,4.6,2.5c2.1-0.2,6-6.1,5.3-9.1c-0.4-2.6-3.2-3.2-5.1-2.6
		C151.6,295.4,147.8,301.1,148.6,304z M155.8,308.2c0.7,0.2,1.1,0.7,1.8,1.1c0.7-1.6,1.7-3,2.8-4.4c1.2,0.5,1.9,1.5,3.3,1.8
		c-0.2-0.7,0.7-0.5,0.5-1.3c-0.6-1.1-2.4-1-2.8-2.3c0.5-0.7,0.6-1.9,1.8-2c1.1,0.6,1.8,1.6,3.3,1.8c0-0.6,0.4-0.7,0.5-1.3
		c-1.8-1-3.3-2.3-5.3-3.1C159.8,302,157.4,304.7,155.8,308.2z M62.9,298.9c-0.5,0.7-1.9,0.6-2,1.8c1.2,3.6,2.6,7,3.6,10.7
		c1-0.1,1.3-0.9,2-1.1c-0.3-1-0.6-1.9-1.1-2.8c0.6-0.4,1.4-0.8,2-1.3c1.1,0.5,1.3,1.8,2.5,2c0.1-0.7,1.4-0.5,1.5-1.3
		C68.5,304.5,66.2,301.1,62.9,298.9z M56.8,323.3c-12.5,12.5-22,29.1-22,55c0,23,11.2,40.9,24,52.8c13.4,12.4,31,21.8,55.9,21.1
		c22.4-0.5,40.7-10.3,53.3-23c13.1-13.2,22.1-29.6,22.1-54.8c0-24-11.6-40.9-23.7-53c-11.9-11.9-32.6-22.3-55.9-21.1
		C85.7,301.5,69.6,310.6,56.8,323.3z M176.4,309.5c-0.4-1.8-3.4-2.4-4.4-3.8c-2.4,3-5.2,5.6-7.4,8.9c0.4,0.3,0.9,0.6,1.3,1.1
		c1.7-0.6,2-2.6,3.6-3.3C171.5,315.8,177.4,313.5,176.4,309.5z M47.9,310.6c2.7,2.6,4.9,5.6,7.4,8.4c0.9,0,1-0.9,1.8-1.1
		c-0.7-1.7-2.3-2.4-3.1-4c0.8-0.4,1-1.4,2.3-1.3c1.2,1,2.1,1.9,3.1,3.1c1-0.3,1.4-1,2-1.5c-2.1-0.6-2.7-4-5.3-3.3
		C57.1,304.3,49.2,307.5,47.9,310.6z M179.5,312.4c-1.7,3.1-7.5,3.9-7.6,7.9c0,2.2,1.9,4.1,4,4c3.5-0.1,6.1-5.6,8.7-6.6
		c-0.7-0.3-0.7-1.3-1.5-1.5c-2.3,1-7.3,8.8-9.1,4.4c1.9-2.5,4.6-4.4,7.1-6.4C180.7,313.3,180.2,312.7,179.5,312.4z M49.7,324.8
		c1.7-0.1,3.6-2.8,3.6-4.4c-0.1-3-6.2-7.1-8.9-6.4C37.2,316.2,46.6,325.1,49.7,324.8z M185.8,319.7c-2.8,2.3-5.7,4.5-8.9,6.4
		c0.4,4.1,7.8,6.9,8.2,0.7C190.7,328.2,189.2,320.8,185.8,319.7z M47.2,327.7c-0.1-2.6-6.3-7.6-9.5-5.8c-1.7,1-1.4,2.8-3.1,4.4
		c3.2,2.2,6.2,4.5,9.5,6.6C45.1,330.8,47.2,329.9,47.2,327.7z M191.5,327.4c-3,2.2-6.8,3.6-9.7,5.8c1.2,1.6,1.9,3.7,3.3,5.1
		c0.3-0.5,1-0.5,1.3-1.1c-0.8-1-1.4-2.1-2-3.3c2.9-1.8,6.1-3.2,8.7-5.1C192.1,328.7,192.6,327.3,191.5,327.4z M32.1,329.9
		c-0.3,1-1.1,1.5-1.3,2.6c3,2.7,5.5,5.7,8.9,7.9c-0.1-1,0.7-1,0.7-1.8c-0.4-1-1.9-1-2-2.3c0.5-0.4,0.6-1.4,1.3-1.8
		c1.1,0.2,2,0.5,2.8,1.1c0.2-0.9,0.7-1.3,1.1-2C39.7,332.3,35.9,331.1,32.1,329.9z M195.3,334.1c-3.3,1.8-6.4,3.6-10,5.1
		c0,0.8,0.7,1.2,0.7,2c3.7-1.4,6.7-3.7,10.4-5.1C196.5,335.1,196,334.4,195.3,334.1z M25.7,343.2c3.7,1.4,6.9,3.3,10.7,4.6
		c0-0.8,0.5-1.2,0.5-2c-1.5-0.6-3.1-1.2-4.4-2c0.6-3.3,3.6-1.4,5.8-0.7c0.6-0.4,0.6-1.4,1.1-2c-2.4-0.1-4.8-2.2-6.4-1.1
		C31.2,334.3,25.7,339.4,25.7,343.2z M198,339.4c-1.5-0.7-9.8,1.1-10.4,4c-0.6,3.1,3.2,6.3,5.8,3.6c-0.4-0.3-0.6-0.9-0.7-1.5
		c-0.8,0.1-2.7,0.7-3.1-0.2c0.5-2.8,6.3-5,8.2-3.1c0.3,1.5-1.4,1-1.5,2c0.4,0.3,0.4,1.2,0.7,1.5C200.8,345.5,200,340.3,198,339.4z
		 M22.6,352.6c3.9,0.9,7.4,2,11.3,3.1c0.1-2.1,1.3-3.2,1.1-5.6c-0.7-1.6-4.1-2.9-5.8-1.3C26.8,344.5,22.1,348.3,22.6,352.6z
		 M204,355c-0.1-3-3.8-3-5.6-1.1c-3.6-4-9.5,2-5.1,5.3c-1.1,0.1-0.1,2,0.2,2.3c1-2,2.7-1.6,5.6-1.5c0.1-0.9-0.2-1.2-0.2-1.8
		c-0.6,0.1-1.2,0.3-2,0.2c0.5-0.7,1.3-1.5,2-2C200.9,358.5,204,357.2,204,355z M21.4,356.7c-0.1,1.1-0.4,1.8-0.5,2.8
		c3.6,1.6,7.3,3.3,10.9,4.9c-0.1-0.9,0.4-1.1,0.2-2c-0.5-0.9-2-0.6-2.5-1.5c0.2-0.7,0-2,0.7-2.3c1,0,1.9,0,2.8,0
		c-0.3-1,0.7-1.8,0-2.3C29.5,356.8,25.1,356.4,21.4,356.7z M29.8,368.5c-3.2-0.6-6.8-0.9-10-1.5c0.1,1-0.4,1.3-0.2,2.3
		c4,0.3,7.8,1,11.5,1.5c0.5-1.8,0.5-4.3,1.1-6.2c-0.9,0.2-1-0.4-1.8-0.2C30.3,365.9,29.9,367,29.8,368.5z M194,366.7
		c0,0.7,0,1.5,0,2.3c1.7-0.2,3.5-0.3,5.1-0.5c-0.1,2,0.3,3.4,1.3,4.4c1.9,0.5,4.3,0.2,5.3-0.7c0.7-1.9-0.1-4,0-6.2
		C201.7,365.9,198.2,366.7,194,366.7z M194.5,377.1c1.6,0.2,3.9-0.3,5.1,0.2c0.1,1.3-0.2,2.2-1.1,2.5c-1.6-0.2-2.5,0.3-4,0.2
		c0,0.7,0,1.5,0,2.3c1.9-0.6,5.4,0.4,6.2-1.5c3.2,3.8,7.1-0.5,5.6-5.8c-4.1,0.2-7.8-0.3-11.7-0.2
		C194.5,375.6,194.5,376.3,194.5,377.1z M28.8,377.1c-1.1-0.4-2.1-1-3.8-0.7c0,0.4,0,0.9,0,1.3c0.4,0.5,1.7,0.2,2,0.7
		c-1,0.2-1.5,0.9-2.3,1.3c-0.6-0.4-1.2-1.1-1.8-1.5c-6.6-0.8-2.9,7.9,1.5,4c2,4.6,10.1,0.5,6.2-3.8c1.2,0,0.8-2.1,0.2-2.6
		C30.2,376.3,29.6,376.9,28.8,377.1z M194,385.8c3.6,0.7,7.8,1,11.5,1.5c0.2-0.6,0.3-1.4,0.2-2.3c-4-0.2-7.7-0.8-11.5-1.3
		C193.9,384.1,194,385.1,194,385.8z M193.5,389.4c-0.2,1-0.5,1.7-0.5,2.8c3.6,1.5,7.2,3,10.9,4.4c0.3-0.6,0.3-1.5,0.5-2.3
		c-3.2-0.9-6.3-1.9-9.1-3.1c3.2,0,6.5,0,9.7,0c0.2-0.7,0.3-1.6,0.5-2.3C201.5,389,197.5,389.3,193.5,389.4z M22.4,399.1
		c3.7-0.9,7.5-1.7,11.3-2.5c-0.4-2.1-0.6-4.5-1.8-5.8C26,389.2,18.1,392.1,22.4,399.1z M192,396.2c0.9,0.5,2,0.7,2.6,1.5
		c-0.3,0.6-0.2,1.7-0.7,2c-1,0-1.9,0-2.8,0c-0.2,0.6-0.4,1.3-0.5,2c3.8,0.3,7.9,0.5,12,0.5c0.1-1.1,0.4-2,0.7-2.8
		c-3.8-1.6-6.9-3.8-10.7-5.3C192.2,394.8,192,395.5,192,396.2z M34.8,400c-0.5-0.3-0.4-1.3-0.7-1.8c-3.7,1.1-7.1,2.4-10.9,3.3
		c-0.1,1,0.3,1.4,0.5,2c3-0.2,5.5-2.2,7.9-2.3c-2.2,2-7.5,3.3-6.4,7.1c4-0.8,7.3-2.3,11.3-3.3c0-0.9-0.5-1.2-0.5-2
		c-2.9,0.7-5.4,1.7-7.9,2.8C30.2,403.9,32.9,402.4,34.8,400z M189.7,403.6c-0.3,0.6-0.6,1.3-0.7,2c3.3,1,6.6,1.9,9.1,3.6
		c-0.1,0.7-0.5,1.4-0.7,2c0.5,0.2,1,0.5,1.8,0.5c0.5-2.4,1.8-4.1,2.3-6.6c-0.6-0.1-1.1-0.3-1.5-0.5c-0.2,0.9-0.4,1.8-1.1,2.3
		C195.8,405.9,192.8,404.6,189.7,403.6z M27.2,412.6c0.2,1.1,0.8,1.7,1.1,2.8c3.8-1,8.5-1.2,12-2.5c-0.6-0.4-0.5-1.6-1.3-1.8
		c-0.7,0.4-1.7,0.5-2.8,0.5c0-0.9-0.7-1.2-0.7-2c0.5-1,2-1,2.3-2c-0.4-0.5-0.5-1.4-1.1-1.8C33.6,408,30.4,410.3,27.2,412.6z
		 M185.1,414.1c0.7-0.1,0.7,0.5,1.5,0.5c0.4-1.3,0.8-2.6,1.8-3.3c1,0.6,2.3,0.9,3.1,1.8c-0.6,0.9-1.2,1.9-1.5,3.1
		c0.7-0.1,0.7,0.5,1.5,0.5c0.6-1,0.9-2.3,1.8-3.1c0.5,0.7,1.9,0.6,2.3,1.5c-0.4,1.2-1.2,2-1.5,3.3c0.5,0.1,0.6,0.5,1.3,0.5
		c1.3-1.5,2-3.4,2.8-5.3c-3.6-1.5-6.9-3.4-10.4-5.1C187.1,410.7,185.5,411.7,185.1,414.1z M39,414.4c1,0.8,1.3,2.3,2,3.3
		c-3,1.4-5.7,3.1-8.7,4.6c0.1,0.7,0.5,1.2,0.7,1.8c3.7-1.6,7.2-3.5,10.4-5.6c-1.4-1.5-1.9-3.7-3.3-5.1
		C40.1,413.9,39.1,413.6,39,414.4z M179.2,423.3c0.6,0.1,0.7,0.7,1.5,0.7c0.7-1.1,1.1-2.5,2.3-3.1c0.7,0.7,2.2,0.9,2.5,2
		c-0.5,1-1.3,1.8-1.8,2.8c0.7,0,0.9,0.6,1.5,0.7c0.6-1.1,1.3-2.1,2-3.1c0.5,0.8,1.9,0.8,2.3,1.8c-0.7,1-1.4,2-2,3.1
		c0.5,0.2,0.7,0.7,1.5,0.7c1.1-1.7,2.3-3.1,3.1-5.1c-3.4-1.9-6.4-4.1-10-5.8C181.4,420,180.1,421.4,179.2,423.3z M45.4,421.5
		c-3.3-1.4-9.5,3.4-9.5,5.8c0,2.1,2.3,3.3,3.3,5.1c2.9-2.6,6.7-4.3,9.5-6.9C46.6,424.3,47.4,422.4,45.4,421.5z M185.1,434
		c3.9-2.4,0.7-3.8-2-6.2c-1.8-1.5-3.6-2.7-4.4-3.6c-3.5,1.3,0.1,3,2,4.6c1.7,1.4,3.4,2.4,3.6,3.1c-3-1.2-6.3-4.5-9.5-3.8
		c1.5,3.2,4.1,5.2,5.8,8.2c-2.6-2.1-4.8-4.4-7.7-6.2c-0.3,0.6-1,1-1.1,1.8c3.1,2.3,5.8,4.9,8.9,7.1c0.5-1.1,1.6-1.6,2-2.8
		c-1.5-1.8-3.7-4.4-4.6-5.8C180.4,431.9,182.6,433,185.1,434z M41,434.8c0.2,0.6,0.9,0.6,1.1,1.3c2.6-1.2,4.5-4.1,6.4-5.1
		c-1.6,2.4-3,5-4.4,7.6c0.7,0.2,0.8,1.3,1.8,1.3c2.8-2.5,6.1-4.7,8.7-7.4c-0.7-0.1-0.6-1.2-1.5-1.3c-2,1.4-4.3,3.9-5.8,4.9
		c1.6-2.1,2.6-4.8,4-6.9c-0.3-0.9-0.8-1.5-1.5-2C47,429.8,43.5,431.7,41,434.8z M170.3,432.8c-2.7,1.8,1.1,3.1,2,4.9
		c-3.6,1.5-2.2,7.9,2,7.1c1.8-0.3,2.8-3.2,4.4-3.6C176.3,438,173.4,435.2,170.3,432.8z M60.3,437.9c-0.3-1.7-3-3.4-4.4-3.3
		c-1.9,0.1-8,7.8-7.9,7.9c0.1,0.4,1.2,0.9,1.8,1.3c2-1.5,6.3-10.1,8.4-5.3c-1.7,3-4.5,4.7-6.2,7.6c0.5,0.2,1.1,0.4,1.3,1.1
		C54.9,444.4,61.1,441.8,60.3,437.9z M159.8,442.1c0.2,0.4,0.5,0.7,1.1,1.1c1.1-0.7,1.9-1.7,3.1-2.3c2.1,2.3,4.3,4.8,6.2,7.4
		c0.8,0,1-0.9,1.8-1.1c-2.1-3.4-4.9-6.2-7.4-9.1C163.1,439.7,161,440.4,159.8,442.1z M57.1,449c0.2,1.4,2.1,3.2,4,3.1
		c1.8-0.1,3.1-2.2,4-3.6c0.6-0.9,3.1-2.9,2.6-5.3c-0.5-2.3-3.5-2.9-4.9-2.5C60.8,441.2,56.6,446.3,57.1,449z M159.8,455.2
		c1.7,0.1,3.8-1.6,4-3.1c0.5-3.4-4.7-8.8-6.6-8.7C149.3,444,156.5,455.1,159.8,455.2z M70.6,450.6c-1.2-0.5-2.3-1.1-3.3-1.8
		c-0.2,0.5-0.5,1.1-0.7,1.5c1.1,0.5,2.1,1.1,3.1,1.8c-0.3,1.1-0.7,1.9-1.5,2.5c-1.2-0.6-2-1.6-3.6-1.8c0,0.6-0.4,0.7-0.5,1.3
		c1.7,1.1,3.5,2.1,5.3,3.1c1.9-3.4,3.8-6.7,5.8-10c-0.7-0.2-1.2-0.9-2-1.1C72.4,447.7,71.5,449.2,70.6,450.6z M148.3,448.1
		c-0.3,0.5-1.3,0.4-1.5,1.1c2.3,2.3,2,7.3,2.6,11.5c0.4-0.5,1.3-0.6,1.8-1.1c0.2-1.8-0.4-2.9-0.2-4.6c1.4,1,2.2,2.3,3.8,3.1
		c0.5-0.4,1.4-0.5,1.8-1.1C153,454.8,150.6,451.5,148.3,448.1z M76.5,460.5c0.4,0.2,1,0.4,1.5,0.5c1.9-2.4,3.4-5.2,5.1-7.9
		c-0.7,3.1-1.6,6.1-2.3,9.1c1,0,1.7,1,2.3,0.5c0.4-3.9,1.5-7.3,2-11.3c-0.8-0.2-1.4-0.9-2.6-0.7c-1.2,2.2-2.5,4.3-3.8,6.4
		c0.4-2.7,1.3-4.9,1.5-7.6c-1.1-0.1-1.5-0.7-2.6-0.7c-1.8,3.5-4.4,6.4-6.2,10c1.1-0.1,1.2,0.7,2.3,0.5c1.3-2.8,3.3-6.1,4.6-7.9
		C77.7,454.2,76.9,457.3,76.5,460.5z M143.5,450.6c-2.1,0.4-3.8,1.3-5.8,1.8c-0.1,0.7,0.5,0.7,0.5,1.5c1.4-0.2,2.2-1,3.8-1.1
		c0.3,1.1,0.9,2,1.1,3.3c-1.2,0.4-2.5,0.5-3.3,1.3c0.4,0.2,0.3,0.9,0.5,1.3c1.3-0.2,2.1-0.9,3.6-1.1c0.1,1.1,0.7,1.7,0.7,2.8
		c-1.3,0.2-2.1,0.9-3.6,1.1c-0.1,0.9,0.3,1,0.5,1.5c2-0.4,3.7-1.2,5.6-1.8C146.2,457.4,144.6,454.2,143.5,450.6z M87.4,454.1
		c1.4,0.3,3.1,0.3,3.8,1.3c-0.3,1.1-0.5,2.1-1.1,3.1c-1.4-0.1-2.1-0.9-3.6-0.7c0.2,0.7-0.4,0.7-0.2,1.5c1.2,0.2,2.4,0.4,3.3,1.1
		c-0.1,1-0.4,1.8-0.7,2.5c-1.5-0.1-2.7-0.6-3.8-1.1c0.1,0.9-0.4,0.9-0.2,1.8c2,0.4,3.8,1.2,5.8,1.5c0.8-3.8,2.1-7.2,3.1-10.9
		C91.7,454,88,451,87.4,454.1z M130.8,454.4c-0.2,0.7,0.4,0.7,0.2,1.5c1.5-0.2,2.6-0.9,4-1.1c0,1.5,0.7,2.1,0.7,3.6
		c-1.4,0-2.1,0.6-3.3,0.7c-0.2,0.7,0.4,0.7,0.2,1.5c1.4-0.1,2.2-0.6,3.6-0.7c0.3,0.9,0.6,1.7,0.7,2.8c-1.3,0.2-2.4,0.6-3.6,1.1
		c-0.2,0.7,0.4,0.7,0.2,1.5c2-0.4,3.7-1.2,5.8-1.5c-1-3.9-2-7.6-3.3-11.3C134.7,453.5,132.5,453.6,130.8,454.4z M93.3,465.6
		c0.6,0.1,1.2,0.3,2,0.2c0.7-2.3,0.6-5.6,1.5-7.9c0.1,3.2,1,5.6,1.3,8.7c1-0.1,1.3,0.4,2.3,0.2c0.9-3.7,1.5-7.5,2.3-11.3
		c-1,0.1-1.3-0.4-2.3-0.2c-0.4,2.7-0.7,5.3-1.3,7.9c-0.3-3.1-1.1-5.7-1.5-8.7c-1.1,0.2-1.3-0.4-2.3-0.2
		C94.8,458.3,93.7,461.7,93.3,465.6z M123.4,456.1c-2,5.6,4.7,4.6,5.8,7.9c-0.4,0.3-0.6,0.9-1.5,0.7c-1.2,0-0.7-1.4-1.5-1.8
		c-0.3,0.5-1.7,0-1.8,0.7c0.1,3.2,4.9,3.5,6.6,1.5c2.2-6-5.6-3.8-5.6-8.4c1.8-1.5,2.6,0.7,3.3,1.8c0.6,0,0.7-0.4,1.5-0.2
		C130.9,454.1,125.3,453.9,123.4,456.1z"/>
	<path fill="#FFFFFF" d="M33.6,410.6c0.6,0.1,0.4,1.1,1.1,1.3c-1,1.2-3.6,0.6-4.9,1.5C30.2,412.5,32.6,411.6,33.6,410.6z"/>
	<path display="none" fill="#FFFFFF" d="M202.9,460.3c-1.8-1.2-1.2-3.6-3.3-4c-1.8-0.4-4.6,1-5.3,2.5c-1.4,2.8-0.2,7.6,0,10.9
		c0.2,3.6,1.3,8,0.7,10.9c-0.7,4-8.9,9-12.5,11.3c-14.9,9.2-32.6,13.9-55.4,15.1c-2.7-5.1-2.5-15.5-1.1-21.7
		c21.6-4.5,42.2-10.1,57.4-21.1c1.9-1.4,3.6-3.4,5.6-4.6c1.2-0.7,2.9-1.1,4.4-2c1.8-1.2,3.2-2.9,4.9-3.3
		C202.8,452.9,206.4,457.1,202.9,460.3z M135.9,501.8c1.7-0.3,1-2.8,1.1-4c0.1-2.8,0.2-6,0.5-8.2c-0.1,2.2,0.3,4.8,0.5,7.1
		c0.1,1.6-0.4,3.8,1.1,4.6c1.3-1,0.4-3.3,0.2-5.1c-0.2-3.4-0.3-7.2-0.7-10.2c-0.8,0-1.3,0.4-2.3,0.2c-0.5,3.3,0.1,8-0.5,11.3
		c-0.2-3.8-1.2-7-1.5-10.7c-1.1-0.1-1.4,0.4-2.6,0.2c0.5,5,0.1,11.2,1.5,15.3c1.6-0.5,0.6-3.2,0.5-5.1c-0.2-2.5-0.3-5.4-0.2-7.1
		C134.2,494,134.2,498.7,135.9,501.8z M186.6,468.7c0.3,4.9,0.4,9.9,0.5,15.1c0.7,0.1,0.7-0.5,1.5-0.5c0.1-1.3-0.4-1.9-0.2-3.3
		c1,0.1,1-0.7,1.8-0.7c0.1,1.1,0.2,2.1,0.7,2.8c0.4-0.3,0.6-0.7,1.3-0.7c-1.1-4.6-2.5-8.8-3.6-13.5
		C187.5,467.6,187.3,468.4,186.6,468.7z M176.7,473.6c0.5,5.1,1,10.2,2,14.8c0.2-0.4,0.6-0.5,1.3-0.5c0.4-2.3-2.2-6.6,0.7-6.9
		c0.7,1.7,0.3,4.5,1.3,5.8c0.2-0.4,0.9-0.4,1.3-0.7c-0.5-2.4-0.1-5.8-2-6.9c1.2-1.9,0.7-5.5-0.5-7.1
		C178.8,471.9,178.1,473,176.7,473.6z M170.5,491.6c4.7,0.5,2.8-16.6-1.3-15.5C165.4,477.1,168.1,491.3,170.5,491.6z M160.9,479.4
		c-0.1,4.6,0.6,10.6,1.3,15.3c2.2-1.1,1-4.7,0.7-7.4c-0.2-3-0.1-6.4-1.3-8.2C161.6,479.4,161.2,479.4,160.9,479.4z M152.1,482.7
		c0.5,5.1,1.2,10,1.8,15.1c1.4-0.3,2.8-0.6,3.8-1.3c-0.5-0.2-0.1-1.4-0.2-2c-1.1-0.1-1.4,0.4-2.3,0.5c-0.5-4.1-1.1-8.3-1.5-12.5
		C152.9,482.3,153,482.9,152.1,482.7z M143,485c0.2,5.3,0.8,10.2,1.5,15.1c1.5-0.1,2.5-0.5,3.8-0.7c0.1-1,0-1.7-0.2-2.3
		c-1,0-1.5,0.4-2.3,0.5c-0.2-1.4-0.3-2.9-0.5-4.4c0.9-0.2,1.8-0.2,2.3-0.7c-0.5-0.2-0.1-1.4-0.2-2c-1,0-1.5,0.4-2.3,0.5
		c0.1-1.5-0.4-2.2-0.2-3.8c0.7-0.1,1.5-0.2,2-0.5c0-0.7,0-1.5,0-2.3C145.5,484.4,144.4,484.8,143,485z"/>
	<path fill="#2B7D3E" d="M488.1,415.1V396c1.2-0.9,2.4-1.9,3.7-2.9c4.3-3.4,7.3-6.4,9-8.9c1.7-2.5,2.5-5.2,2.5-8.1
		c0-3.9-1.3-6.8-3.8-8.8c-2.6-2-6.4-3-11.4-3.1h-0.1v-16.9h11.6c7.8,0,13.7,2.1,17.9,6.2c4.1,4.1,6.3,9.9,6.3,17.4
		c0,6.7-1.7,12.9-5.2,18.5c-3.4,5.5-8.9,11.2-16.5,16.8c-2.8,2-6.7,4.6-11.8,7.5C489.6,414.2,488.9,414.7,488.1,415.1L488.1,415.1z
		 M596.8,460.2l-56-0.2c-2,0-3.3-0.3-3.9-1c-0.6-0.6-1.1-2.4-1.3-5.4c-0.2-2.1-0.4-7-0.6-14.8c-0.2-7.8-0.2-16.3-0.2-25.6
		c0-10.1,0.5-20.1,1.5-29.8c1-9.7,2.2-18,3.9-24.8c1.1-4.6,1.9-7.5,2.9-9c0.9-1.5,2-2.2,3.4-2.1l50.7,0.2c1.3,0,2.1,0.1,2.6,0.4
		c0.4,0.3,0.6,0.6,0.6,1.3c0,0.2,0,0.4,0,0.6s-0.1,0.4-0.2,0.5l-7.5,17.2c-0.4,0.9-0.8,1.4-1.1,1.7c-0.3,0.3-0.6,0.5-1.1,0.5
		c-0.2,0-0.7-0.3-1.8-1.1c-5.8-3.6-11.4-5.4-16.6-5.4c-5.7,0-10.3,1.7-13.6,5.1c-3.3,3.4-5,8.3-5,14.3c0,2.1,0.4,3.8,1.2,5.1
		c0.7,1.3,1.8,1.9,3.1,1.9c1.4,0,4.5-1.1,9.5-3.2c4.9-2.1,9.1-3.2,12.6-3.2c3.6,0,5.9,0.2,6.9,0.5c1,0.3,1.5,1.1,1.5,2
		c0,0.2,0,0.3,0,0.5c0,0.1-0.1,0.4-0.2,0.7l-6.1,17.5c-0.1,0.2-0.2,0.6-0.4,1.1c-0.3,1-0.7,1.5-1.2,1.5c-0.1,0-1.4-0.4-3.9-1.2
		c-2.4-0.7-4.8-1.2-7-1.2c-4.7,0-8.5,1.6-11.5,5c-3,3.4-4.5,7.6-4.6,13c0,6.1,1.5,10.8,4.4,14.2c3,3.4,7.1,5.1,12.5,5.1
		c4.5,0,9-1.5,13.9-4.6c4.8-3.1,7.2-4.6,7.3-4.6c0.4,0,0.7,0.2,1.2,0.5c0.4,0.4,0.7,0.9,1,1.6l8.6,19.9c0.1,0.3,0.2,0.6,0.3,1
		c0.1,0.3,0.1,0.5,0.1,0.7c0,1-0.4,1.7-1.3,2.2C600.1,460,598.7,460.2,596.8,460.2z M488.1,347.3v16.9c-5.3,0-9,1.5-11.3,4.4
		c-2.2,3-3.5,8.2-3.7,15.8l-0.3,9.6v1c0,2.4,0.2,4.4,0.6,5.6c0.4,1.4,1.1,2,2,2c1.3,0,3.4-0.9,6.5-2.7c2-1.1,4-2.4,6.2-4v19.2
		c-3.8,2.3-6.6,4-8.1,5.3c-1.9,1.6-3.2,3.2-3.9,4.8c-0.6,1.6-1,3.6-1,6.2c0,6.6,1.2,14.1,3.6,22.6c0.6,2.3,1.1,3.8,1.1,4.4
		s-0.2,1-0.7,1.2c-0.4,0.2-1.4,0.3-2.7,0.3l-18.2-0.1c-1.6,0-2.7-0.3-3.2-1c-0.5-0.6-1-1.8-1.2-3.7c-0.5-7.9-1-16-1.2-24.6
		c-0.2-8.6-0.3-17.2-0.3-25.9c0-12.5,0.3-23.3,0.9-32.3s1.4-16,2.3-21c0.3-1.5,0.6-2.5,1.2-3.1s1.4-0.7,2.8-0.7H488.1L488.1,347.3z
		 M394.3,418v-18.9c2.3-0.2,4.8-0.3,7.3-0.3c4.4,0,7.1-0.3,8.3-0.9c1.2-0.6,1.8-1.7,1.8-3.5c0-1.9-0.4-4.3-1.4-7
		c-0.9-2.8-2.1-5.5-3.6-8.4c-2.2-4-4-6.8-5.3-8.3c-1.4-1.4-2.7-2.1-4-2.1c-1,0-2,0.3-3.1,1.1v-23.4c1.4-0.6,2.7-1,3.7-1
		c1.9,0,4.6,1.4,8,4.3c3.4,2.8,6.7,6.5,10,11c6.3,8.6,10.7,18.2,13.6,28.7c2.8,10.6,4.1,23.4,4.1,38.4c0,5.7-0.3,11.4-1,16.9
		c-0.5,5.5-1.2,9.4-1.8,11.5c-0.4,1.5-1.1,2.4-1.8,2.9c-0.7,0.4-2.1,0.6-4,0.6l-16.3-0.1c-1.1,0-1.9-0.1-2.5-0.3s-0.8-0.4-0.8-0.9
		c0-0.4,0.4-1.7,1.4-4.1c4.1-10.9,6.3-20.3,6.4-27.9c0-3.6-0.6-6.1-1.9-7.3c-1.3-1.4-3.6-2-6.9-2C401.5,416.9,398.1,417.4,394.3,418
		z M278.1,459h-13.3c-1.6,0-2.7-0.4-3.2-1.3c-0.5-0.8-1-2.7-1.2-5.4c-0.3-2.9-0.6-8.5-0.9-17c-0.3-8.5-0.4-17.7-0.3-27.8
		c0-13.8,0.2-24.8,0.6-32.8c0.3-8.1,0.9-14.7,1.6-19.7c0.1-0.6,0.2-1.5,0.3-2.7c0.5-3.9,1.6-5.8,3.4-5.8h12.4c2.7,0,4.9,1.1,7,3.1
		c2,2,5.3,6.5,9.8,13.4c5.5,8.5,10.9,17.7,15.9,27.8c5,10.1,8,15.2,8.7,15.2c0.5,0,1-0.6,1.2-2c0.3-1.3,0.5-3,0.5-5.1
		c0.1-16.7-1.7-32.5-5.3-47.6c-0.4-1.9-0.7-3-0.7-3.3c0-0.5,0.2-0.9,0.6-1.1c0.4-0.2,1.3-0.3,2.4-0.3h12.9c1.1,0,1.9,0.3,2.4,1.1
		c0.5,0.6,0.8,1.9,1.2,3.7c0.7,5.1,1.4,12.9,1.9,23.1c0.5,10.3,0.7,20.9,0.7,32.2c0,9.8-0.3,18.8-0.7,27c-0.4,8.2-1,14.6-1.7,18.9
		c0,0.2-0.1,0.4-0.1,0.9c-0.5,3.9-2.2,5.8-4.9,5.8H316c-0.8,0-1.5-0.1-2-0.2c-0.4-0.2-0.7-0.4-1-0.9c0,0-0.9-2.8-2.3-8.1
		c-1.5-5.3-3.2-10.8-4.9-16.6c-4.5-13.9-9.5-26-15-36.1c-5.6-10.2-9.6-15.3-11.7-15.3c-1.1,0-1.9,0.7-2.4,2.2
		c-0.5,1.5-0.8,3.9-0.8,7.2c-0.1,21,1.8,41,5.5,59.9c0.6,2.9,0.9,4.5,0.9,5c0,1.2-0.3,1.9-0.9,2.2C280.8,458.9,279.7,459,278.1,459
		L278.1,459z M394.3,346.3v23.4c-0.7,0.4-1.5,1.1-2.3,1.8c-2,2-4.4,4.9-6.9,8.8c-2.9,4.5-5,8.2-6.3,10.9c-1.3,2.8-1.9,5-1.9,6.8
		c0,1.4,0.2,2.4,0.6,2.9c0.4,0.5,1.3,0.7,2.6,0.7c0,0,2.3-0.5,6.9-1.5c2.3-0.5,4.8-1,7.3-1.2v18.9l-0.4,0.1
		c-3.9,0.7-7.4,1.7-10.5,2.8c-3.2,1.3-5.4,2.8-6.8,4.6c-1.4,1.8-2,4.3-2,7.3c0,5.1,1.3,10.6,3.8,16.4s3.8,8.8,3.8,9.1
		c0,0.4-0.2,0.7-0.5,1c-0.3,0.2-1,0.2-1.8,0.2l-18.9-0.1c-2.4,0-4.4-2.7-5.6-7.9c-1.3-5.3-1.9-12.9-1.8-22.8c0-10.7,1.5-21,4.5-31
		c3-10,7.2-19.3,12.9-28.1c4.6-6.9,9.6-12.8,14.9-17.3C389.1,349.3,392,347.3,394.3,346.3z"/>
</g>
</svg>
