<?xml version="1.0" encoding="utf-8"?>
<!-- Generator: Adobe Illustrator 18.1.0, SVG Export Plug-In . SVG Version: 6.00 Build 0)  -->
<svg version="1.1" id="Layer_1" xmlns="http://www.w3.org/2000/svg" xmlns:xlink="http://www.w3.org/1999/xlink" x="0px" y="0px"
	 viewBox="34.8 300.3 155.3 152" enable-background="new 34.8 300.3 155.3 152" xml:space="preserve">
<g>
	<path fill="#2B7D3E" d="M110.6,300.4c23.3-1.1,43.9,9.2,55.9,21.1c12.1,12.2,23.7,29,23.7,53c0,25.2-9,41.6-22.2,54.8
		c-12.6,12.6-30.8,22.4-53.3,23c-24.9,0.6-42.5-8.7-55.9-21.1c-12.6-11.8-23.9-29.9-23.9-52.8c0-25.9,9.3-42.5,21.9-55
		C69.6,310.6,85.7,301.5,110.6,300.4z M110.1,312.6c-1.5,2.9-2,7.4-3.3,10.9c-2.9-0.1-4-1.7-6.6-2c-1.1,1.2-2.6,2-3.8,3.1
		c-2.5,5,1.4,13.8-2.5,17.1c-5.8-1.4-8.6-5.8-14.6-7.1c0,3.9-0.8,6.7-0.5,9.7c0.2,1.8,1.4,3.3,1.8,5.1c0.4,1.7,0.1,3.2,0.7,4.6
		c1.1,2.2,3.9,3.6,3.1,7.4c3.2,1.8,5.5,4.3,6.9,7.9c-0.7,1.9-2,3.3-3.6,4.4c-1.7-1.8-4-1.5-6.4-2.8c-2.7-1.5-4.9-5.2-8.2-4.6
		c-1.7,0.3-2.2,3.2-4,3.8c-3.9,1.4-6.8-3.8-11.7-1.8c-4.3-1.9-8-5.7-14.2-4.9c-0.6,4.6,3.1,6,4.4,8.9c0.6,1.6,0.4,3.4,1.1,4.9
		c0.7,2,2.2,3.3,2.5,5.3c-2.9,3.1,1.8,4.8,1.8,8.2c1,1.9,3.5,2.3,4.6,4c-0.5,2.1-2.5,2.8-3.3,4.6c1.5,1.5,1.8,2.9,2.8,4.6
		c1.1,0.3,2.4,0.3,3.8,0.2c1.5,2.2,4.8,1.5,7.6,2.3c1.5,0.4,2.7,1.3,4,1.5c5,1.1,10.6,0.1,13.8,3.1c-0.2,1.4-1.4,1.9-2.3,2.5
		c0.7,1.4-1.1,3.9-2.6,4c-1.4,0.1-2.6-2-4-1.8c-0.8,0.1-2.5,2.7-3.6,3.3c-0.3,0.2-1-0.1-1.3,0c-1.9,1-5.6,5.5-5.8,6.9
		c-0.1,1.1,0.6,2.8,0.7,3.6c6,0.5,5.7,8,12.2,6.9c1.6-0.2,3-1.8,5.1-1.8c1.4,0,2.7,0.3,4.4,1.1c0.3,0.7,0.2,1.9,0.2,3.1
		c1.1-0.3,2.3,1.4,4,1.3c2-0.1,3.9-3.6,6.6-4c1.5-0.3,2.1,0.5,4,0.7c3.8,0.4,6.9-0.6,6.6,2.8c-0.1,2.1-4.6,3.6-2,7.4
		c1.6,1.4,5.2,0.5,7.4,0.2c-0.1-2.7-2-3.5-3.1-5.1c1-4.4,3.5-3.7,8.4-4c3.4-0.2,7.2-1.1,9.7-0.7c1.3,0.1,2.6,1,3.8,0.7
		c1.2-0.2,1.7-1.3,2.8-1.8c3.4-1.5,7.2-0.5,10.9-1.3c1.2-1.1,0.6-3.7,2.3-4.4c3.4,1.3,8-1.6,5.3-5.3c-4.1-3.1-10.9-10.1-5.6-15.8
		c4.3,0.9,5.4-1.4,7.4-2.8c5.3,1.3,10-1.9,12.2-5.3c-3.1-0.2-4.5-2.1-6.6-3.3c2.1-3.1,7.8-2.8,7.1-8.7c-0.4-0.5-1.8-0.2-1.5-1.5
		c0.9-3.3,5.6-3.8,4.4-8.4c2.9-2.7,4.4-6.7,5.3-11.3c-1.6,0.1-2.7-1.3-4.6-1.1s-3.2,3-5.1,3.6c-2,0.6-4.5,0-6.4,0.5
		c-2.2,0.6-3.3,2.4-5.3,2.3c-0.6-7.5-5.6-2-9.5-2.6c-2.2,0.7-3.2,5.4-6.9,4.6c-1-0.2-2.9-1.9-2.8-3.6c0.1-1.2,1.3-1.6,1.8-2.6
		c1.3-2.3,2.1-5.6,4.4-6.9c0.1-3.9,2.5-5.5,4.9-7.4c0.4-1.8-0.1-3.6,0.5-5.6c0.3-1.2,1.4-1.9,1.5-3.1c0.1-0.9-0.4-1.8-0.5-2.8
		c-0.2-2,0.4-4.8-1.5-5.6c-2.2,0-2.2,1.5-4.6,0.7c-1.8,1.2-2.2,3.5-4.6,3.8c-1.3,0.1-2.3-0.7-3.6-0.5c-1.9,0.3-2.4,2.4-4.6,2
		c-1.3-0.5-1-2.6-1.1-4.4c2.9-2.1,1.6-7.3,2-11.5c-1.1-1.5-3.6-3.3-5.3-1.8c-2.4-1.5-2.4-4.6-3.8-6.9c-0.6-1.2-2.3-1.9-3.1-3.3
		c-2.1-3.9-2-9.4-5.3-11.5C114.2,308.1,111.6,309.7,110.1,312.6z"/>
	<path fill="#2B7D3E" d="M105.3,342.2c2.3,3.3,3.7,7.3,5.3,12c0.2,0.7,0.9,1.4,1.1,2c0.2,1.1-0.2,2.4,0,3.6
		c1.1,4.6,6.5,7.4,10.4,9.5c-1.1,3-7.2,2.1-6.6,5.8c3.2,0.6,4.5-2.7,7.7-2.8c0.4,0.4,0.2,1.5,0.2,2.3c0.6,0.5,2,0.2,3.1,0.2
		c0.4,2.4,2.2,7,0.2,8.7c-4.9-2.6-16.4,1.2-21.1-2c-0.2-1.6,0.4-2.4,0.2-4c-2.3-1.7-3.5,1.4-3.1,4c-1.6-0.5-3.6-0.6-4.9-1.5
		c-0.5-1-0.5-2.6-0.7-3.8c-1.2-0.3-1.1,0.7-2.3,0.5c-0.6-2.5-1.1-6.6-0.2-9.1c0.8-0.4,1.9-0.6,2.3-1.5c0.5,0.7,6.4,2.2,7.9,1.8
		c4.6-1.3-1-9,1.3-13.3c-0.3-0.9-1.3-1.1-1.5-2C106.3,349.4,104.9,345.9,105.3,342.2z"/>
	<path fill="#2B7D3E" d="M131.5,392.4c-0.6,2.8-2.9,5.3-1.8,8.9c1,0,1.2-0.9,2.3-0.7c0.7,3.9,5.6,2.2,8.7,3.1
		c0.2,1.3-0.6,1.6-1.1,2.3c0.3,1.1,1.3,1.6,1.8,2.5c-0.1,1.2-0.5,2.8,0,3.8c0.7,0.3,1,0.1,1.3-0.5c0.5,0.3,0.5,1.2,0.7,1.8
		c0.7,0.2,0.6-0.3,1.3-0.2c-0.1,1.3-0.5,2.1-1.1,3.1c-0.5-0.2-0.7-0.7-0.7-1.5c-0.6,0-0.9-0.5-1.1,0.2c-0.5-1.2-0.2-3.2-1.5-3.6
		c-2.2,0.4-2.3,2.9-4.6,3.3c0.2-0.9,0.7-1.3,0.5-2.6c-3.5,0.5-8.8,0.6-13.5,0c-0.8-1.9,2-3,0.7-5.3
		C127.5,403.6,126.8,395.4,131.5,392.4z"/>
</g>
</svg>
